<?xml version="1.0" encoding="UTF-8" standalone="no"?>
<!-- Created with Inkscape (http://www.inkscape.org/) -->

<svg
   xmlns:dc="http://purl.org/dc/elements/1.1/"
   xmlns:cc="http://creativecommons.org/ns#"
   xmlns:rdf="http://www.w3.org/1999/02/22-rdf-syntax-ns#"
   xmlns:svg="http://www.w3.org/2000/svg"
   xmlns="http://www.w3.org/2000/svg"
   xmlns:xlink="http://www.w3.org/1999/xlink"
   xmlns:sodipodi="http://sodipodi.sourceforge.net/DTD/sodipodi-0.dtd"
   xmlns:inkscape="http://www.inkscape.org/namespaces/inkscape"
   width="64"
   height="64"
   id="svg6311"
   version="1.1"
   inkscape:version="0.92.1 r15371"
   sodipodi:docname="canaima-logo 64x64.svg">
  <defs
     id="defs6313">
    <linearGradient
       inkscape:collect="always"
       xlink:href="#linearGradient7162"
       id="linearGradient6260"
       gradientUnits="userSpaceOnUse"
       gradientTransform="matrix(3.0598885,0,0,3.0598885,4341.2853,-7745.038)"
       x1="-1189.8101"
       y1="2728.8835"
       x2="-1187.4935"
       y2="2759.1086" />
    <linearGradient
       inkscape:collect="always"
       id="linearGradient7162">
      <stop
         style="stop-color:#a1e030;stop-opacity:1"
         offset="0"
         id="stop7164" />
      <stop
         style="stop-color:#556b2f;stop-opacity:1"
         offset="1"
         id="stop7166" />
    </linearGradient>
    <linearGradient
       inkscape:collect="always"
       xlink:href="#linearGradient7154"
       id="linearGradient6258"
       gradientUnits="userSpaceOnUse"
       gradientTransform="translate(1903.1946,-2060.5418)"
       x1="-1181.5977"
       y1="2741.823"
       x2="-1181.9034"
       y2="2747.4153" />
    <linearGradient
       inkscape:collect="always"
       id="linearGradient7154">
      <stop
         style="stop-color:#242424;stop-opacity:1"
         offset="0"
         id="stop7156" />
      <stop
         style="stop-color:#0e0e0e;stop-opacity:1"
         offset="1"
         id="stop7158" />
    </linearGradient>
    <linearGradient
       inkscape:collect="always"
       xlink:href="#linearGradient7043"
       id="linearGradient6256"
       gradientUnits="userSpaceOnUse"
       gradientTransform="translate(1879.4683,-1364.5722)"
       x1="-1156.3885"
       y1="2042.782"
       x2="-1188.7191"
       y2="2059.3843" />
    <linearGradient
       inkscape:collect="always"
       id="linearGradient7043">
      <stop
         style="stop-color:#e6e6e6;stop-opacity:1;"
         offset="0"
         id="stop7045" />
      <stop
         style="stop-color:#808080;stop-opacity:1"
         offset="1"
         id="stop7047" />
    </linearGradient>
    <linearGradient
       inkscape:collect="always"
       xlink:href="#linearGradient7043"
       id="linearGradient6254"
       gradientUnits="userSpaceOnUse"
       gradientTransform="translate(1879.4683,-1364.5722)"
       x1="-1156.3885"
       y1="2042.782"
       x2="-1188.7191"
       y2="2059.3843" />
    <linearGradient
       inkscape:collect="always"
       xlink:href="#linearGradient7043"
       id="linearGradient6252"
       gradientUnits="userSpaceOnUse"
       gradientTransform="translate(83.463368,372.72872)"
       x1="-1156.3885"
       y1="2042.782"
       x2="-1188.7191"
       y2="2059.3843" />
    <linearGradient
       y2="2059.3843"
       x2="-1188.7191"
       y1="2042.782"
       x1="-1156.3885"
       gradientTransform="translate(1879.4683,-1364.5722)"
       gradientUnits="userSpaceOnUse"
       id="linearGradient6309"
       xlink:href="#linearGradient7043"
       inkscape:collect="always" />
  </defs>
  <sodipodi:namedview
     id="base"
     pagecolor="#ffffff"
     bordercolor="#666666"
     borderopacity="1.0"
     inkscape:pageopacity="0.0"
     inkscape:pageshadow="2"
     inkscape:zoom="7.9195959"
     inkscape:cx="60.883555"
     inkscape:cy="47.427892"
     inkscape:document-units="px"
     inkscape:current-layer="layer1"
     showgrid="false"
     fit-margin-top="0"
     fit-margin-left="0"
     fit-margin-right="0"
     fit-margin-bottom="0"
     inkscape:window-width="1920"
     inkscape:window-height="1018"
     inkscape:window-x="-8"
     inkscape:window-y="-8"
     inkscape:window-maximized="1" />
  <metadata
     id="metadata6316">
    <rdf:RDF>
      <cc:Work
         rdf:about="">
        <dc:format>image/svg+xml</dc:format>
        <dc:type
           rdf:resource="http://purl.org/dc/dcmitype/StillImage" />
        <dc:title></dc:title>
      </cc:Work>
    </rdf:RDF>
  </metadata>
  <g
     inkscape:label="Capa 1"
     inkscape:groupmode="layer"
     id="layer1"
     transform="translate(-673.92058,-611.07521)">
    <path
       inkscape:connector-curvature="0"
       style="overflow:visible;fill:url(#linearGradient6260);fill-opacity:1;stroke-width:0.66302925"
       id="path6249"
       d="m 699.12042,611.33649 c -4.88787,0.15907 -6.37957,5.82693 -7.36731,9.71329 -0.82737,1.83688 2.20251,2.10826 1.98436,2.72972 -0.68297,1.94274 -5.74923,4.05528 -7.64298,7.76204 -2.44915,3.8882 -5.2618,7.71307 -6.33888,12.29952 -0.61901,2.6367 -1.14471,7.34985 -0.98223,9.10866 0.47215,5.11494 1.00731,10.90455 5.23241,14.4384 3.8732,2.96903 7.00133,-2.27991 8.5631,-4.86276 1.71201,-3.68932 1.50883,-9.48015 4.7263,-12.41214 1.37939,-1.37664 2.39957,-2.48065 0.99049,-0.11624 -2.48493,5.40805 -1.82798,12.14868 -5.91292,16.79512 -1.38277,1.32614 -3.83038,4.18775 -0.62332,5.11305 3.04001,1.21846 6.40773,1.81453 9.47343,2.7426 2.01859,0.45959 8.45937,0.16832 4.16174,-2.77441 -1.33564,-0.76039 -6.74979,-2.78175 -2.73552,-2.3656 2.28694,-0.0335 4.58646,0.052 6.86026,0.0306 0.55692,-2.4476 -4.86156,-2.24259 -6.7339,-2.4057 -3.7046,-0.26925 -2.89526,-3.70214 -1.36837,-6.5864 1.69302,-3.19851 3.85207,-6.06958 5.03412,-9.47096 1.7065,-2.84296 2.45617,-8.41408 -1.75392,-9.38009 -4.00631,-0.58108 -7.80302,1.79799 -10.97247,4.00293 -1.47669,0.90912 -5.19199,5.04087 -2.48736,1.43297 2.67525,-3.43657 5.75748,-7.67972 10.46021,-8.03345 3.66146,0.001 7.03255,1.6961 10.43728,2.78267 3.95369,0.69397 8.07352,-2.63702 11.43389,-4.08832 3.56079,-0.96538 6.39761,0.67289 9.90119,-0.22948 -0.8017,-3.27991 -5.90314,-4.70061 -8.51168,-4.10484 -3.43536,1.13307 -6.59409,2.22514 -10.72677,2.60486 -2.87538,0.0826 -4.96008,-1.25974 -7.41318,-2.5247 -1.8965,-1.43417 -4.04518,-2.48371 -5.95944,-3.87383 0.88247,-1.89438 3.86342,-0.51313 3.78386,-3.4904 0.64655,-1.71047 2.82609,-1.52443 1.41031,-3.96286 -0.66676,-2.7233 2.72786,-5.19815 0.44703,-7.92297 -1.32584,-2.68842 -4.77648,-2.78939 -7.36973,-2.93934 v 3.1e-4 z"
       sodipodi:nodetypes="ccccsscccccccccccsccccccccccccccccc" />
  </g>
</svg>
