<?xml version="1.0" encoding="UTF-8" standalone="no"?>
<!-- Created with Inkscape (http://www.inkscape.org/) -->

<svg
   xmlns:dc="http://purl.org/dc/elements/1.1/"
   xmlns:cc="http://creativecommons.org/ns#"
   xmlns:rdf="http://www.w3.org/1999/02/22-rdf-syntax-ns#"
   xmlns:svg="http://www.w3.org/2000/svg"
   xmlns="http://www.w3.org/2000/svg"
   xmlns:xlink="http://www.w3.org/1999/xlink"
   xmlns:sodipodi="http://sodipodi.sourceforge.net/DTD/sodipodi-0.dtd"
   xmlns:inkscape="http://www.inkscape.org/namespaces/inkscape"
   width="19"
   height="19"
   id="svg2"
   version="1.1"
   inkscape:version="0.92.1 r15371"
   sodipodi:docname="close_focused_pressed.svg">
  <defs
     id="defs4">
    <linearGradient
       id="linearGradient3837"
       inkscape:collect="always">
      <stop
         id="stop3839"
         offset="0"
         style="stop-color:#73aa10;stop-opacity:1" />
      <stop
         id="stop3841"
         offset="1"
         style="stop-color:#87c612;stop-opacity:1" />
    </linearGradient>
    <linearGradient
       id="linearGradient3904">
      <stop
         style="stop-color:#000000;stop-opacity:0.28921569"
         offset="0"
         id="stop3906" />
      <stop
         style="stop-color:#000000;stop-opacity:0.07954545"
         offset="1"
         id="stop3908" />
    </linearGradient>
    <linearGradient
       inkscape:collect="always"
       id="linearGradient3856">
      <stop
         style="stop-color:#84c312;stop-opacity:1"
         offset="0"
         id="stop3858" />
      <stop
         style="stop-color:#93d814;stop-opacity:1"
         offset="1"
         id="stop3860" />
    </linearGradient>
    <linearGradient
       id="linearGradient3777">
      <stop
         id="stop3779"
         offset="0"
         style="stop-color:#000000;stop-opacity:0.22745098;" />
      <stop
         id="stop3781"
         offset="1"
         style="stop-color:#000000;stop-opacity:0;" />
    </linearGradient>
    <linearGradient
       id="linearGradient3767">
      <stop
         style="stop-color:#fafafa;stop-opacity:1;"
         offset="0"
         id="stop3769" />
      <stop
         style="stop-color:#d4d4d4;stop-opacity:1;"
         offset="1"
         id="stop3771" />
    </linearGradient>
    <linearGradient
       id="linearGradient3757">
      <stop
         style="stop-color:#bebebe;stop-opacity:1;"
         offset="0"
         id="stop3759" />
      <stop
         style="stop-color:#e6e6e6;stop-opacity:1;"
         offset="1"
         id="stop3761" />
    </linearGradient>
    <linearGradient
       inkscape:collect="always"
       xlink:href="#linearGradient3757"
       id="linearGradient3763"
       x1="13"
       y1="4"
       x2="13"
       y2="19"
       gradientUnits="userSpaceOnUse" />
    <linearGradient
       inkscape:collect="always"
       xlink:href="#linearGradient3777"
       id="linearGradient3801"
       gradientUnits="userSpaceOnUse"
       x1="14.470589"
       y1="16.999983"
       x2="14.470589"
       y2="5.9999824" />
    <linearGradient
       y2="5.9999824"
       x2="14.470589"
       y1="16.999983"
       x1="14.470589"
       gradientUnits="userSpaceOnUse"
       id="linearGradient3801-9"
       xlink:href="#linearGradient3777-9"
       inkscape:collect="always" />
    <linearGradient
       y2="16.999987"
       x2="13.333333"
       y1="5.9999866"
       x1="13.333333"
       gradientUnits="userSpaceOnUse"
       id="linearGradient3797"
       xlink:href="#linearGradient3767-7"
       inkscape:collect="always" />
    <linearGradient
       gradientUnits="userSpaceOnUse"
       y2="19"
       x2="13"
       y1="4"
       x1="13"
       id="linearGradient3763-4"
       xlink:href="#linearGradient3757-5"
       inkscape:collect="always" />
    <linearGradient
       id="linearGradient3757-5">
      <stop
         id="stop3759-4"
         offset="0"
         style="stop-color:#bebebe;stop-opacity:1;" />
      <stop
         id="stop3761-5"
         offset="1"
         style="stop-color:#e6e6e6;stop-opacity:1;" />
    </linearGradient>
    <linearGradient
       id="linearGradient3767-7">
      <stop
         id="stop3769-8"
         offset="0"
         style="stop-color:#fafafa;stop-opacity:1;" />
      <stop
         id="stop3771-1"
         offset="1"
         style="stop-color:#d4d4d4;stop-opacity:1;" />
    </linearGradient>
    <linearGradient
       id="linearGradient3777-9">
      <stop
         style="stop-color:#000000;stop-opacity:0.22745098;"
         offset="0"
         id="stop3779-0" />
      <stop
         style="stop-color:#000000;stop-opacity:0;"
         offset="1"
         id="stop3781-3" />
    </linearGradient>
    <linearGradient
       inkscape:collect="always"
       xlink:href="#linearGradient3856"
       id="linearGradient3862"
       x1="12.916666"
       y1="15.670819"
       x2="12.916666"
       y2="7.8110538"
       gradientUnits="userSpaceOnUse" />
    <linearGradient
       inkscape:collect="always"
       xlink:href="#linearGradient3856"
       id="linearGradient3902"
       gradientUnits="userSpaceOnUse"
       x1="12.916666"
       y1="15.670819"
       x2="12.916666"
       y2="7.8110538" />
    <linearGradient
       inkscape:collect="always"
       xlink:href="#linearGradient3856"
       id="linearGradient3942"
       gradientUnits="userSpaceOnUse"
       x1="12.916666"
       y1="15.670819"
       x2="12.916666"
       y2="7.8110538" />
    <linearGradient
       inkscape:collect="always"
       xlink:href="#linearGradient3856"
       id="linearGradient3049"
       gradientUnits="userSpaceOnUse"
       x1="12.916666"
       y1="15.670819"
       x2="12.916666"
       y2="7.8110538" />
    <linearGradient
       inkscape:collect="always"
       xlink:href="#linearGradient3837"
       id="linearGradient3067"
       gradientUnits="userSpaceOnUse"
       x1="12.916666"
       y1="15.670819"
       x2="12.916666"
       y2="7.8110538" />
  </defs>
  <sodipodi:namedview
     id="base"
     pagecolor="#ffffff"
     bordercolor="#ff0058"
     borderopacity="1"
     inkscape:pageopacity="0.0"
     inkscape:pageshadow="2"
     inkscape:zoom="24.500002"
     inkscape:cx="9.0733956"
     inkscape:cy="5.7046899"
     inkscape:document-units="px"
     inkscape:current-layer="layer1"
     showgrid="false"
     showguides="true"
     inkscape:guide-bbox="true"
     inkscape:window-width="1280"
     inkscape:window-height="967"
     inkscape:window-x="0"
     inkscape:window-y="30"
     inkscape:window-maximized="1"
     fit-margin-top="0"
     fit-margin-left="0"
     fit-margin-right="0"
     fit-margin-bottom="0"
     borderlayer="true"
     inkscape:snap-grids="false"
     inkscape:snap-to-guides="false">
    <inkscape:grid
       type="xygrid"
       id="grid2985"
       empspacing="5"
       visible="true"
       enabled="true"
       snapvisiblegridlinesonly="true"
       originx="-1.9999997"
       originy="-2.0000327"
       spacingx="1"
       spacingy="1" />
  </sodipodi:namedview>
  <metadata
     id="metadata7">
    <rdf:RDF>
      <cc:Work
         rdf:about="">
        <dc:format>image/svg+xml</dc:format>
        <dc:type
           rdf:resource="http://purl.org/dc/dcmitype/StillImage" />
        <dc:title></dc:title>
      </cc:Work>
    </rdf:RDF>
  </metadata>
  <g
     inkscape:label="Layer 1"
     inkscape:groupmode="layer"
     id="layer1"
     transform="translate(-1.9999997,-1031.3622)">
    <ellipse
       ry="9.4902658"
       rx="9.4902668"
       cy="1040.8928"
       cx="11.551021"
       id="path3910"
       style="opacity:1;fill:#908d2b;fill-opacity:1;stroke:none;stroke-width:1.80972278" />
    <ellipse
       ry="8.631608"
       rx="8.631609"
       cy="1040.8929"
       cx="11.551021"
       style="fill:#ffffff;fill-opacity:1;stroke:none;stroke-width:1.64598322"
       id="path3868" />
    <g
       id="g4518"
       transform="matrix(0.92374795,0,0,0.92374795,0.91939252,79.402666)">
      <ellipse
         ry="5.5"
         rx="5"
         cy="11.5"
         cx="13"
         style="fill:none;fill-opacity:1;stroke:#908d2b;stroke-width:0.69920588;stroke-miterlimit:4;stroke-dasharray:none;stroke-opacity:1"
         id="path3870"
         transform="matrix(1.3567915,0,0,1.2334469,-6.1290615,1026.6731)" />
      <g
         transform="matrix(0.9045277,0,0,0.9045277,1.10716,99.36906)"
         id="g3872" />
    </g>
    <g
       id="g3872-7"
       transform="matrix(0.96529468,0,0,0.96529468,0.40886752,36.125296)"
       style="fill:#908d2b;fill-opacity:1">
      <g
         id="g3878-1"
         style="fill:#908d2b;fill-opacity:1"
         transform="matrix(1.2374369,0,0,1.2374369,-3.3492588,-246.52035)">
        <path
           style="fill:#908d2b;fill-opacity:1;stroke:none"
           d="M 6.875,6 6,6.875 8.625,9.5 6,12.125 6.875,13 9.5,10.375 12.125,13 13,12.125 10.375,9.5 13,6.875 12.125,6 9.5,8.625 Z"
           transform="matrix(0.80812201,0,0,0.80812201,4.3228536,1032.685)"
           id="path3880-3"
           inkscape:connector-curvature="0" />
      </g>
    </g>
  </g>
</svg>
