<?xml version="1.0" encoding="UTF-8" standalone="no"?>
<!-- Created with Inkscape (http://www.inkscape.org/) -->

<svg
   xmlns:dc="http://purl.org/dc/elements/1.1/"
   xmlns:cc="http://creativecommons.org/ns#"
   xmlns:rdf="http://www.w3.org/1999/02/22-rdf-syntax-ns#"
   xmlns:svg="http://www.w3.org/2000/svg"
   xmlns="http://www.w3.org/2000/svg"
   xmlns:xlink="http://www.w3.org/1999/xlink"
   xmlns:sodipodi="http://sodipodi.sourceforge.net/DTD/sodipodi-0.dtd"
   xmlns:inkscape="http://www.inkscape.org/namespaces/inkscape"
   sodipodi:docname="grid-selection-checked.svg"
   inkscape:version="0.92.1 r15371"
   version="1.1"
   id="svg5038"
   height="40"
   width="40">
  <defs
     id="defs5040">
    <inkscape:path-effect
       effect="spiro"
       id="path-effect5837"
       is_visible="true" />
    <inkscape:path-effect
       effect="spiro"
       id="path-effect5012"
       is_visible="true" />
    <inkscape:path-effect
       effect="spiro"
       id="path-effect5884"
       is_visible="true" />
    <linearGradient
       inkscape:collect="always"
       xlink:href="#linearGradient10332-5-3-3"
       id="linearGradient15343-1"
       gradientUnits="userSpaceOnUse"
       gradientTransform="matrix(0.84941206,0,0,0.84794288,-623.98415,-483.16392)"
       x1="260.92538"
       y1="233.77748"
       x2="260.92538"
       y2="248.97633" />
    <linearGradient
       inkscape:collect="always"
       id="linearGradient10332-5-3-3">
      <stop
         style="stop-color:#d7bad9;stop-opacity:1"
         offset="0"
         id="stop10334-5-3-1" />
      <stop
         style="stop-color:#d7bad9;stop-opacity:1"
         offset="1"
         id="stop10336-29-3-4" />
    </linearGradient>
    <linearGradient
       y2="1106.5294"
       x2="808"
       y1="1040.7369"
       x1="806.39526"
       gradientTransform="matrix(0.04728153,0,0,0.52063887,144.29163,-314.78125)"
       gradientUnits="userSpaceOnUse"
       id="linearGradient5726"
       xlink:href="#linearGradient85841-7-0"
       inkscape:collect="always" />
    <linearGradient
       inkscape:collect="always"
       id="linearGradient85841-7-0">
      <stop
         style="stop-color:#242424;stop-opacity:1"
         offset="0"
         id="stop85843-4-8" />
      <stop
         id="stop85845-0-5"
         offset="0.63381755"
         style="stop-color:#101010;stop-opacity:1;" />
      <stop
         style="stop-color:#262626;stop-opacity:1"
         offset="1"
         id="stop85847-7-3" />
    </linearGradient>
  </defs>
  <sodipodi:namedview
     id="base"
     pagecolor="#ffffff"
     bordercolor="#666666"
     borderopacity="1.0"
     inkscape:pageopacity="0.0"
     inkscape:pageshadow="2"
     inkscape:zoom="3.8041516"
     inkscape:cx="22.380516"
     inkscape:cy="-9.1144687"
     inkscape:current-layer="layer1"
     showgrid="true"
     inkscape:grid-bbox="true"
     inkscape:document-units="px"
     inkscape:window-width="1278"
     inkscape:window-height="970"
     inkscape:window-x="0"
     inkscape:window-y="30"
     inkscape:window-maximized="0"
     inkscape:snap-global="false" />
  <metadata
     id="metadata5043">
    <rdf:RDF>
      <cc:Work
         rdf:about="">
        <dc:format>image/svg+xml</dc:format>
        <dc:type
           rdf:resource="http://purl.org/dc/dcmitype/StillImage" />
        <dc:title />
      </cc:Work>
    </rdf:RDF>
  </metadata>
  <g
     id="layer1"
     inkscape:label="Layer 1"
     inkscape:groupmode="layer"
     transform="translate(0,-8)">
    <g
       style="display:inline;enable-background:new"
       id="g15291-9"
       transform="matrix(2.0481319,0,0,2.0481319,-949.79991,-333.53349)"
       inkscape:export-filename="/home/jimmac/SparkleShare/gnome-mockups/boxes/interactive/img/checkbox-on.png"
       inkscape:export-xdpi="90"
       inkscape:export-ydpi="90">
      <g
         style="enable-background:new"
         id="g16853-4"
         transform="translate(877.50354,-102.83507)">
        <rect
           ry="0.80653393"
           rx="0.80653393"
           y="-284.86218"
           x="-409.50739"
           height="11.023263"
           width="11.042357"
           id="rect6506-6"
           style="color:#000000;fill:#ffffff;fill-opacity:1;fill-rule:nonzero;stroke:url(#linearGradient15343-1);stroke-width:0.48824981;stroke-opacity:1;marker:none;visibility:visible;display:inline;overflow:visible;enable-background:accumulate"
           transform="scale(1,-1)" />
      </g>
    </g>
    <g
       style="display:inline;enable-background:new"
       id="g5886"
       transform="matrix(1.025641,0,0,1.025641,-189.74359,-219.69231)"
       inkscape:export-filename="/home/jimmac/SparkleShare/gnome-mockups/boxes/interactive/img/checkbox-on.png"
       inkscape:export-xdpi="90"
       inkscape:export-ydpi="90">
      <path
         inkscape:connector-curvature="0"
         inkscape:original-d="m 198.5,240 5.25,5.25 13.875,-13.875"
         inkscape:path-effect="#path-effect5837"
         id="path5835"
         d="m 198.5,240 5.25,5.25 13.875,-13.875"
         style="fill:none;stroke:#1e728e;stroke-width:5.8499999;stroke-linecap:round;stroke-linejoin:round;stroke-miterlimit:4;stroke-opacity:1;stroke-dasharray:none" />
      <path
         style="fill:none;stroke:#3194b5;stroke-width:2.92499995;stroke-linecap:round;stroke-linejoin:round;stroke-miterlimit:4;stroke-opacity:1;stroke-dasharray:none;fill-opacity:1"
         d="m 198.5,240 5.25,5.25 13.875,-13.875"
         id="path5880"
         inkscape:path-effect="#path-effect5837"
         inkscape:original-d="m 198.5,240 5.25,5.25 13.875,-13.875"
         inkscape:connector-curvature="0" />
    </g>
    <path
       style="fill:#005800;fill-opacity:0"
       d="m 15.050635,17.398648 c -0.07874,-0.08324 -0.310276,-0.243236 -0.514516,-0.35554 -0.610793,-0.335852 -1.344197,-0.26531 -1.871344,0.179994 -0.118573,0.100164 -0.260957,0.115795 -0.837585,0.09195 l -0.694727,-0.02873 0.115437,-0.22323 c 0.06349,-0.122777 0.292593,-0.40896 0.509116,-0.635963 0.900113,-0.943674 2.273532,-1.175484 3.455736,-0.58327 0.184468,0.09241 0.695546,0.520054 1.142857,0.956291 l 0.809166,0.78913 -0.985485,-0.01964 c -0.897219,-0.01788 -0.998307,-0.0332 -1.128655,-0.170994 z"
       id="path5727"
       inkscape:connector-curvature="0"
       transform="translate(0,8)" />
  </g>
</svg>
