<?xml version="1.0" encoding="UTF-8" standalone="no"?>
<!-- Created with Inkscape (http://www.inkscape.org/) -->

<svg
   xmlns:dc="http://purl.org/dc/elements/1.1/"
   xmlns:cc="http://creativecommons.org/ns#"
   xmlns:rdf="http://www.w3.org/1999/02/22-rdf-syntax-ns#"
   xmlns:svg="http://www.w3.org/2000/svg"
   xmlns="http://www.w3.org/2000/svg"
   xmlns:xlink="http://www.w3.org/1999/xlink"
   xmlns:sodipodi="http://sodipodi.sourceforge.net/DTD/sodipodi-0.dtd"
   xmlns:inkscape="http://www.inkscape.org/namespaces/inkscape"
   width="48"
   height="26"
   id="svg3482"
   version="1.1"
   inkscape:version="0.92.1 r15371"
   sodipodi:docname="switch-on.svg"
   inkscape:export-filename="/media/ftolosa/KINGSTON/CANAIMA 6/imagen CNTI-Canaima6/iconos/iconos/assets/switch-on.png"
   inkscape:export-xdpi="90"
   inkscape:export-ydpi="90">
  <defs
     id="defs3484">
    <linearGradient
       id="linearGradient4431"
       inkscape:collect="always">
      <stop
         id="stop4433"
         offset="0"
         style="stop-color:#db155a;stop-opacity:1" />
      <stop
         style="stop-color:#dc2c6a;stop-opacity:1"
         offset="0.3562986"
         id="stop4435" />
      <stop
         style="stop-color:#de306d;stop-opacity:1"
         offset="0.66866171"
         id="stop4437" />
      <stop
         id="stop4439"
         offset="1"
         style="stop-color:#d32361;stop-opacity:1" />
    </linearGradient>
    <linearGradient
       inkscape:collect="always"
       id="linearGradient4423">
      <stop
         style="stop-color:#363636;stop-opacity:1"
         offset="0"
         id="stop4425" />
      <stop
         style="stop-color:#363636;stop-opacity:1"
         offset="1"
         id="stop4427" />
    </linearGradient>
    <linearGradient
       inkscape:collect="always"
       id="linearGradient4415">
      <stop
         style="stop-color:#454545;stop-opacity:1"
         offset="0"
         id="stop4417" />
      <stop
         style="stop-color:#333333;stop-opacity:1"
         offset="1"
         id="stop4419" />
    </linearGradient>
    <linearGradient
       inkscape:collect="always"
       id="linearGradient4405">
      <stop
         style="stop-color:#8f0032;stop-opacity:1;"
         offset="0"
         id="stop4407" />
      <stop
         id="stop4413"
         offset="1"
         style="stop-color:#c20044;stop-opacity:1" />
    </linearGradient>
    <linearGradient
       id="linearGradient4271"
       inkscape:collect="always">
      <stop
         id="stop4273"
         offset="0"
         style="stop-color:#535353;stop-opacity:1" />
      <stop
         style="stop-color:#636363;stop-opacity:1"
         offset="0.3562986"
         id="stop4275" />
      <stop
         style="stop-color:#636363;stop-opacity:1"
         offset="0.74471039"
         id="stop4277" />
      <stop
         id="stop4279"
         offset="1"
         style="stop-color:#575757;stop-opacity:1" />
    </linearGradient>
    <linearGradient
       inkscape:collect="always"
       id="linearGradient4132">
      <stop
         style="stop-color:#3e3e3e;stop-opacity:1"
         offset="0"
         id="stop4134" />
      <stop
         id="stop4142"
         offset="0.43177092"
         style="stop-color:#494949;stop-opacity:0.97254902;" />
      <stop
         id="stop4140"
         offset="0.75508446"
         style="stop-color:#4d4d4d;stop-opacity:1" />
      <stop
         style="stop-color:#494949;stop-opacity:1"
         offset="1"
         id="stop4136" />
    </linearGradient>
    <linearGradient
       inkscape:collect="always"
       id="linearGradient4124">
      <stop
         style="stop-color:#cccccc;stop-opacity:1;"
         offset="0"
         id="stop4126" />
      <stop
         style="stop-color:#cccccc;stop-opacity:0.68560606"
         offset="1"
         id="stop4128" />
    </linearGradient>
    <linearGradient
       id="linearGradient4125">
      <stop
         style="stop-color:#ffffff;stop-opacity:0.48627451;"
         offset="0"
         id="stop4127" />
      <stop
         style="stop-color:#ffffff;stop-opacity:0;"
         offset="1"
         id="stop4129" />
    </linearGradient>
    <linearGradient
       id="linearGradient4133">
      <stop
         style="stop-color:#000000;stop-opacity:0.1254902;"
         offset="0"
         id="stop4135" />
      <stop
         style="stop-color:#000000;stop-opacity:0.0627451;"
         offset="1"
         id="stop4137" />
    </linearGradient>
    <linearGradient
       id="linearGradient4064">
      <stop
         id="stop4066"
         offset="0"
         style="stop-color:#4a79a5;stop-opacity:0.50980395;" />
      <stop
         id="stop4068"
         offset="1"
         style="stop-color:#4a79a5;stop-opacity:0;" />
    </linearGradient>
    <linearGradient
       id="linearGradient3965">
      <stop
         style="stop-color:#ffffff;stop-opacity:0.39285713;"
         offset="0"
         id="stop3967" />
      <stop
         style="stop-color:#ffffff;stop-opacity:0;"
         offset="1"
         id="stop3969" />
    </linearGradient>
    <linearGradient
       id="linearGradient3459">
      <stop
         id="stop3461"
         offset="0"
         style="stop-color:#4a79a5;stop-opacity:0.50980395;" />
      <stop
         id="stop3463"
         offset="1"
         style="stop-color:#4a79a5;stop-opacity:0;" />
    </linearGradient>
    <linearGradient
       id="linearGradient3466">
      <stop
         style="stop-color:#ffffff;stop-opacity:0.39285713;"
         offset="0"
         id="stop3468" />
      <stop
         style="stop-color:#ffffff;stop-opacity:0;"
         offset="1"
         id="stop3470" />
    </linearGradient>
    <linearGradient
       id="linearGradient3986">
      <stop
         style="stop-color:#878787;stop-opacity:1;"
         offset="0"
         id="stop3988" />
      <stop
         style="stop-color:#4b4b4b;stop-opacity:1;"
         offset="1"
         id="stop3990" />
    </linearGradient>
    <linearGradient
       id="linearGradient3953">
      <stop
         style="stop-color:#828282;stop-opacity:0.68627453;"
         offset="0"
         id="stop3955" />
      <stop
         style="stop-color:#828282;stop-opacity:0;"
         offset="1"
         id="stop3957" />
    </linearGradient>
    <linearGradient
       id="linearGradient3965-6">
      <stop
         style="stop-color:#ffffff;stop-opacity:0.39285713;"
         offset="0"
         id="stop3967-3" />
      <stop
         style="stop-color:#ffffff;stop-opacity:0;"
         offset="1"
         id="stop3969-2" />
    </linearGradient>
    <linearGradient
       id="linearGradient3668">
      <stop
         style="stop-color:#828282;stop-opacity:0.68627453;"
         offset="0"
         id="stop3670" />
      <stop
         style="stop-color:#828282;stop-opacity:0;"
         offset="1"
         id="stop3672" />
    </linearGradient>
    <linearGradient
       id="linearGradient3675">
      <stop
         style="stop-color:#ffffff;stop-opacity:0.39285713;"
         offset="0"
         id="stop3677" />
      <stop
         style="stop-color:#ffffff;stop-opacity:0;"
         offset="1"
         id="stop3679" />
    </linearGradient>
    <linearGradient
       id="linearGradient4133-1">
      <stop
         style="stop-color:#000000;stop-opacity:0.1254902;"
         offset="0"
         id="stop4135-3" />
      <stop
         style="stop-color:#000000;stop-opacity:0.0627451;"
         offset="1"
         id="stop4137-6" />
    </linearGradient>
    <linearGradient
       id="linearGradient4198">
      <stop
         style="stop-color:#c0c0c0;stop-opacity:1;"
         offset="0"
         id="stop4200" />
      <stop
         style="stop-color:#d1d1d1;stop-opacity:1;"
         offset="1"
         id="stop4202" />
    </linearGradient>
    <linearGradient
       id="linearGradient3942">
      <stop
         id="stop3944"
         offset="0"
         style="stop-color:#878787;stop-opacity:1;" />
      <stop
         id="stop3946"
         offset="1"
         style="stop-color:#828282;stop-opacity:1;" />
    </linearGradient>
    <linearGradient
       inkscape:collect="always"
       xlink:href="#linearGradient4125-9"
       id="linearGradient3245"
       gradientUnits="userSpaceOnUse"
       x1="428.21423"
       y1="548.57648"
       x2="428.21423"
       y2="541.57648"
       gradientTransform="matrix(1.958336,0,0,1.2500004,-360.37115,-69.099883)" />
    <linearGradient
       id="linearGradient4125-9">
      <stop
         style="stop-color:#ffffff;stop-opacity:0.48627451;"
         offset="0"
         id="stop4127-6" />
      <stop
         style="stop-color:#ffffff;stop-opacity:0;"
         offset="1"
         id="stop4129-9" />
    </linearGradient>
    <linearGradient
       inkscape:collect="always"
       xlink:href="#linearGradient4125-4"
       id="linearGradient3403"
       gradientUnits="userSpaceOnUse"
       gradientTransform="matrix(1.958336,0,0,1.2500004,-360.37115,-97.099883)"
       x1="428.21423"
       y1="548.57648"
       x2="428.21423"
       y2="541.57648" />
    <linearGradient
       id="linearGradient4125-4">
      <stop
         style="stop-color:#ffffff;stop-opacity:0.48627451;"
         offset="0"
         id="stop4127-1" />
      <stop
         style="stop-color:#ffffff;stop-opacity:0;"
         offset="1"
         id="stop4129-5" />
    </linearGradient>
    <linearGradient
       inkscape:collect="always"
       xlink:href="#linearGradient3972"
       id="linearGradient3405"
       gradientUnits="userSpaceOnUse"
       gradientTransform="matrix(1.8750093,0,0,1.150008,-324.3978,-1194.288)"
       x1="428.21423"
       y1="548.57648"
       x2="428.21423"
       y2="541.57648" />
    <linearGradient
       id="linearGradient3972">
      <stop
         id="stop3974"
         offset="0"
         style="stop-color:#a0a0a0;stop-opacity:1;" />
      <stop
         id="stop3976"
         offset="1"
         style="stop-color:#bebebe;stop-opacity:1;" />
    </linearGradient>
    <linearGradient
       inkscape:collect="always"
       xlink:href="#linearGradient4306"
       id="linearGradient3409"
       gradientUnits="userSpaceOnUse"
       gradientTransform="matrix(1.7916673,0,0,1.049997,-288.41783,-1140.4744)"
       x1="428.21423"
       y1="548.57648"
       x2="428.21423"
       y2="541.57648" />
    <linearGradient
       id="linearGradient4306">
      <stop
         id="stop4308"
         offset="0"
         style="stop-color:#000000;stop-opacity:0.03137255;" />
      <stop
         id="stop4310"
         offset="1"
         style="stop-color:#000000;stop-opacity:0;" />
    </linearGradient>
    <radialGradient
       inkscape:collect="always"
       xlink:href="#linearGradient4284"
       id="radialGradient3411"
       gradientUnits="userSpaceOnUse"
       gradientTransform="matrix(1.2051902,0,0,1.2051887,394.57522,598.34706)"
       cx="66"
       cy="-19"
       fx="66"
       fy="-19"
       r="7" />
    <linearGradient
       id="linearGradient4284">
      <stop
         id="stop4286"
         offset="0"
         style="stop-color:#828282;stop-opacity:0.39215687;" />
      <stop
         id="stop4288"
         offset="1"
         style="stop-color:#828282;stop-opacity:0;" />
    </linearGradient>
    <radialGradient
       inkscape:collect="always"
       xlink:href="#linearGradient3965-4"
       id="radialGradient3413"
       gradientUnits="userSpaceOnUse"
       gradientTransform="matrix(1.2051902,0,0,1.2051887,394.57522,598.34706)"
       cx="66"
       cy="-19"
       fx="66"
       fy="-19"
       r="7" />
    <linearGradient
       id="linearGradient3965-4">
      <stop
         style="stop-color:#ffffff;stop-opacity:0.39285713;"
         offset="0"
         id="stop3967-1" />
      <stop
         style="stop-color:#ffffff;stop-opacity:0;"
         offset="1"
         id="stop3969-7" />
    </linearGradient>
    <radialGradient
       inkscape:collect="always"
       xlink:href="#linearGradient4284"
       id="radialGradient3415"
       gradientUnits="userSpaceOnUse"
       gradientTransform="matrix(-1.0358675,0.32475847,0.33853201,1.2979227,548.91702,578.67523)"
       cx="66"
       cy="-19"
       fx="66"
       fy="-19"
       r="7" />
    <linearGradient
       id="linearGradient3955">
      <stop
         id="stop3957-1"
         offset="0"
         style="stop-color:#828282;stop-opacity:0.39215687;" />
      <stop
         id="stop3959"
         offset="1"
         style="stop-color:#828282;stop-opacity:0;" />
    </linearGradient>
    <radialGradient
       inkscape:collect="always"
       xlink:href="#linearGradient3965-4"
       id="radialGradient3417"
       gradientUnits="userSpaceOnUse"
       gradientTransform="matrix(1.077388,0,0,1.0773891,-20.634277,27.513995)"
       cx="459.21423"
       cy="508.57648"
       fx="459.21423"
       fy="508.57648"
       r="7.8299899" />
    <linearGradient
       id="linearGradient3962">
      <stop
         style="stop-color:#ffffff;stop-opacity:0.39285713;"
         offset="0"
         id="stop3964" />
      <stop
         style="stop-color:#ffffff;stop-opacity:0;"
         offset="1"
         id="stop3966" />
    </linearGradient>
    <linearGradient
       inkscape:collect="always"
       xlink:href="#linearGradient4270"
       id="linearGradient3419"
       gradientUnits="userSpaceOnUse"
       x1="67.50013"
       y1="-13.499995"
       x2="67.50013"
       y2="-29.500275" />
    <linearGradient
       id="linearGradient4270">
      <stop
         id="stop4272"
         offset="0"
         style="stop-color:#bebebe;stop-opacity:1;" />
      <stop
         id="stop4274"
         offset="1"
         style="stop-color:#a0a0a0;stop-opacity:1;" />
    </linearGradient>
    <linearGradient
       y2="-29.500275"
       x2="67.50013"
       y1="-13.499995"
       x1="67.50013"
       gradientUnits="userSpaceOnUse"
       id="linearGradient3982"
       xlink:href="#linearGradient4270"
       inkscape:collect="always" />
    <radialGradient
       inkscape:collect="always"
       xlink:href="#linearGradient4284"
       id="radialGradient4097"
       gradientUnits="userSpaceOnUse"
       gradientTransform="matrix(-1.0358675,0.32475847,0.33853201,1.2979227,460.83876,535.54569)"
       cx="66"
       cy="-19"
       fx="66"
       fy="-19"
       r="7" />
    <radialGradient
       inkscape:collect="always"
       xlink:href="#linearGradient3965-4"
       id="radialGradient4099"
       gradientUnits="userSpaceOnUse"
       gradientTransform="matrix(1.077388,0,0,1.0773891,-108.71254,-15.615547)"
       cx="459.21423"
       cy="508.57648"
       fx="459.21423"
       fy="508.57648"
       r="7.8299899" />
    <radialGradient
       inkscape:collect="always"
       xlink:href="#linearGradient4284"
       id="radialGradient4102"
       gradientUnits="userSpaceOnUse"
       gradientTransform="matrix(1.2051902,0,0,1.2051887,306.49696,555.21752)"
       cx="66"
       cy="-19"
       fx="66"
       fy="-19"
       r="7" />
    <radialGradient
       inkscape:collect="always"
       xlink:href="#linearGradient3965-4"
       id="radialGradient4104"
       gradientUnits="userSpaceOnUse"
       gradientTransform="matrix(1.2051902,0,0,1.2051887,306.49696,555.21752)"
       cx="66"
       cy="-19"
       fx="66"
       fy="-19"
       r="7" />
    <linearGradient
       inkscape:collect="always"
       xlink:href="#linearGradient4306"
       id="linearGradient4108"
       gradientUnits="userSpaceOnUse"
       gradientTransform="matrix(1.7916673,0,0,1.049997,-398.49609,-1097.3449)"
       x1="428.21423"
       y1="548.57648"
       x2="428.21423"
       y2="541.57648" />
    <linearGradient
       inkscape:collect="always"
       xlink:href="#linearGradient3972"
       id="linearGradient4112"
       gradientUnits="userSpaceOnUse"
       gradientTransform="matrix(1.8750093,0,0,1.150008,-434.47606,-1151.1585)"
       x1="428.21423"
       y1="548.57648"
       x2="428.21423"
       y2="541.57648" />
    <linearGradient
       inkscape:collect="always"
       xlink:href="#linearGradient4125-4"
       id="linearGradient4115"
       gradientUnits="userSpaceOnUse"
       gradientTransform="matrix(1.958336,0,0,1.2500004,-470.44941,-140.22942)"
       x1="428.21423"
       y1="548.57648"
       x2="428.21423"
       y2="541.57648" />
    <linearGradient
       inkscape:collect="always"
       xlink:href="#linearGradient2698-5-7-9-2-0-6-0-6-3"
       id="linearGradient5005-9-6"
       gradientUnits="userSpaceOnUse"
       gradientTransform="matrix(7.5266189,0,0,7.5057597,-6339.7857,-15974.709)"
       x1="24.86747"
       y1="-0.22429028"
       x2="24.86747"
       y2="23.158091" />
    <linearGradient
       id="linearGradient2698-5-7-9-2-0-6-0-6-3">
      <stop
         id="stop2700-4-3-7-1-0-1-5-2-5"
         style="stop-color:#ffffff;stop-opacity:1"
         offset="0" />
      <stop
         id="stop2702-9-5-7-0-1-1-6-2-2"
         style="stop-color:#ffffff;stop-opacity:0"
         offset="1" />
    </linearGradient>
    <linearGradient
       y2="6.6379809"
       x2="10.669972"
       y1="16.37722"
       x1="10.669972"
       gradientUnits="userSpaceOnUse"
       id="linearGradient3967"
       xlink:href="#linearGradient3097-3"
       inkscape:collect="always" />
    <linearGradient
       y2="8.8397017"
       x2="13.302153"
       y1="15.347179"
       x1="13.302153"
       gradientUnits="userSpaceOnUse"
       id="linearGradient3965-7"
       xlink:href="#linearGradient3091"
       inkscape:collect="always" />
    <linearGradient
       y2="6.6379809"
       x2="10.669972"
       y1="16.37722"
       x1="10.669972"
       gradientUnits="userSpaceOnUse"
       id="linearGradient3954"
       xlink:href="#linearGradient3918"
       inkscape:collect="always" />
    <linearGradient
       y2="8.8397017"
       x2="13.302153"
       y1="15.347179"
       x1="13.302153"
       gradientUnits="userSpaceOnUse"
       id="linearGradient3952"
       xlink:href="#linearGradient3910"
       inkscape:collect="always" />
    <linearGradient
       gradientUnits="userSpaceOnUse"
       y2="6.6379809"
       x2="10.669972"
       y1="16.37722"
       x1="10.669972"
       id="linearGradient3924"
       xlink:href="#linearGradient3918"
       inkscape:collect="always" />
    <linearGradient
       gradientUnits="userSpaceOnUse"
       y2="8.8397017"
       x2="13.302153"
       y1="15.347179"
       x1="13.302153"
       id="linearGradient3916"
       xlink:href="#linearGradient3910"
       inkscape:collect="always" />
    <linearGradient
       id="linearGradient3904">
      <stop
         style="stop-color:#000000;stop-opacity:0.28921569"
         offset="0"
         id="stop3906" />
      <stop
         style="stop-color:#000000;stop-opacity:0.07954545"
         offset="1"
         id="stop3908" />
    </linearGradient>
    <linearGradient
       inkscape:collect="always"
       id="linearGradient3856">
      <stop
         style="stop-color:#84c312;stop-opacity:1"
         offset="0"
         id="stop3858" />
      <stop
         style="stop-color:#93d814;stop-opacity:1"
         offset="1"
         id="stop3860" />
    </linearGradient>
    <linearGradient
       id="linearGradient3777-6">
      <stop
         id="stop3779-01"
         offset="0"
         style="stop-color:#000000;stop-opacity:0.22745098;" />
      <stop
         id="stop3781-9"
         offset="1"
         style="stop-color:#000000;stop-opacity:0;" />
    </linearGradient>
    <linearGradient
       id="linearGradient3767-75">
      <stop
         style="stop-color:#fafafa;stop-opacity:1;"
         offset="0"
         id="stop3769-4" />
      <stop
         style="stop-color:#d4d4d4;stop-opacity:1;"
         offset="1"
         id="stop3771-16" />
    </linearGradient>
    <linearGradient
       id="linearGradient3757-6">
      <stop
         style="stop-color:#bebebe;stop-opacity:1;"
         offset="0"
         id="stop3759-1" />
      <stop
         style="stop-color:#e6e6e6;stop-opacity:1;"
         offset="1"
         id="stop3761-4" />
    </linearGradient>
    <linearGradient
       inkscape:collect="always"
       xlink:href="#linearGradient3757-6"
       id="linearGradient3763-6"
       x1="13"
       y1="4"
       x2="13"
       y2="19"
       gradientUnits="userSpaceOnUse" />
    <linearGradient
       inkscape:collect="always"
       xlink:href="#linearGradient3777-6"
       id="linearGradient3801-5"
       gradientUnits="userSpaceOnUse"
       x1="14.470589"
       y1="16.999983"
       x2="14.470589"
       y2="5.9999824" />
    <linearGradient
       y2="5.9999824"
       x2="14.470589"
       y1="16.999983"
       x1="14.470589"
       gradientUnits="userSpaceOnUse"
       id="linearGradient3801-9"
       xlink:href="#linearGradient3777-9"
       inkscape:collect="always" />
    <linearGradient
       y2="16.999987"
       x2="13.333333"
       y1="5.9999866"
       x1="13.333333"
       gradientUnits="userSpaceOnUse"
       id="linearGradient3797-7"
       xlink:href="#linearGradient3767-7"
       inkscape:collect="always" />
    <linearGradient
       gradientUnits="userSpaceOnUse"
       y2="19"
       x2="13"
       y1="4"
       x1="13"
       id="linearGradient3763-4"
       xlink:href="#linearGradient3757-5"
       inkscape:collect="always" />
    <linearGradient
       id="linearGradient3757-5">
      <stop
         id="stop3759-4"
         offset="0"
         style="stop-color:#bebebe;stop-opacity:1;" />
      <stop
         id="stop3761-5"
         offset="1"
         style="stop-color:#e6e6e6;stop-opacity:1;" />
    </linearGradient>
    <linearGradient
       id="linearGradient3767-7">
      <stop
         id="stop3769-8"
         offset="0"
         style="stop-color:#fafafa;stop-opacity:1;" />
      <stop
         id="stop3771-1"
         offset="1"
         style="stop-color:#d4d4d4;stop-opacity:1;" />
    </linearGradient>
    <linearGradient
       id="linearGradient3777-9">
      <stop
         style="stop-color:#000000;stop-opacity:0.22745098;"
         offset="0"
         id="stop3779-0" />
      <stop
         style="stop-color:#000000;stop-opacity:0;"
         offset="1"
         id="stop3781-3" />
    </linearGradient>
    <linearGradient
       inkscape:collect="always"
       xlink:href="#linearGradient3856"
       id="linearGradient3862"
       x1="12.916666"
       y1="15.670819"
       x2="12.916666"
       y2="7.8110538"
       gradientUnits="userSpaceOnUse" />
    <linearGradient
       inkscape:collect="always"
       xlink:href="#linearGradient3856"
       id="linearGradient3902"
       gradientUnits="userSpaceOnUse"
       x1="12.916666"
       y1="15.670819"
       x2="12.916666"
       y2="7.8110538" />
    <linearGradient
       inkscape:collect="always"
       xlink:href="#linearGradient2698-5-7-9-2-0-6-0-6"
       id="linearGradient5005-9"
       gradientUnits="userSpaceOnUse"
       gradientTransform="matrix(7.5266189,0,0,7.5057597,-6339.7857,-15974.709)"
       x1="24.86747"
       y1="-0.22429028"
       x2="24.86747"
       y2="23.158091" />
    <linearGradient
       id="linearGradient2698-5-7-9-2-0-6-0-6">
      <stop
         id="stop2700-4-3-7-1-0-1-5-2"
         style="stop-color:#ffffff;stop-opacity:1"
         offset="0" />
      <stop
         id="stop2702-9-5-7-0-1-1-6-2"
         style="stop-color:#ffffff;stop-opacity:0"
         offset="1" />
    </linearGradient>
    <linearGradient
       inkscape:collect="always"
       xlink:href="#linearGradient2698-5-7-9-2-0-6-0-6-6"
       id="linearGradient4997-8"
       gradientUnits="userSpaceOnUse"
       gradientTransform="matrix(7.5266189,0,0,7.5057597,-6339.7857,-15974.709)"
       x1="24.86747"
       y1="-0.22429028"
       x2="24.86747"
       y2="23.158091" />
    <linearGradient
       id="linearGradient2698-5-7-9-2-0-6-0-6-6">
      <stop
         id="stop2700-4-3-7-1-0-1-5-2-4"
         style="stop-color:#ffffff;stop-opacity:1"
         offset="0" />
      <stop
         id="stop2702-9-5-7-0-1-1-6-2-8"
         style="stop-color:#ffffff;stop-opacity:0"
         offset="1" />
    </linearGradient>
    <linearGradient
       y2="5.9999824"
       x2="14.470589"
       y1="16.999983"
       x1="14.470589"
       gradientUnits="userSpaceOnUse"
       id="linearGradient3801"
       xlink:href="#linearGradient3777"
       inkscape:collect="always" />
    <linearGradient
       y2="16.999987"
       x2="13.333333"
       y1="5.9999866"
       x1="13.333333"
       gradientUnits="userSpaceOnUse"
       id="linearGradient3797"
       xlink:href="#linearGradient3767"
       inkscape:collect="always" />
    <linearGradient
       gradientUnits="userSpaceOnUse"
       y2="19"
       x2="13"
       y1="4"
       x1="13"
       id="linearGradient3763"
       xlink:href="#linearGradient3757"
       inkscape:collect="always" />
    <linearGradient
       id="linearGradient3757">
      <stop
         id="stop3759"
         offset="0"
         style="stop-color:#bebebe;stop-opacity:1;" />
      <stop
         id="stop3761"
         offset="1"
         style="stop-color:#e6e6e6;stop-opacity:1;" />
    </linearGradient>
    <linearGradient
       id="linearGradient3767">
      <stop
         id="stop3769"
         offset="0"
         style="stop-color:#fafafa;stop-opacity:1;" />
      <stop
         id="stop3771"
         offset="1"
         style="stop-color:#d4d4d4;stop-opacity:1;" />
    </linearGradient>
    <linearGradient
       id="linearGradient3777">
      <stop
         style="stop-color:#000000;stop-opacity:0.22745098;"
         offset="0"
         id="stop3779" />
      <stop
         style="stop-color:#000000;stop-opacity:0;"
         offset="1"
         id="stop3781" />
    </linearGradient>
    <linearGradient
       id="linearGradient3910"
       inkscape:collect="always">
      <stop
         id="stop3912"
         offset="0"
         style="stop-color:#1194d2;stop-opacity:1" />
      <stop
         id="stop3914"
         offset="1"
         style="stop-color:#24aded;stop-opacity:1" />
    </linearGradient>
    <linearGradient
       id="linearGradient3918"
       inkscape:collect="always">
      <stop
         id="stop3920"
         offset="0"
         style="stop-color:#0e75a6;stop-opacity:1" />
      <stop
         id="stop3922"
         offset="1"
         style="stop-color:#118cc6;stop-opacity:1" />
    </linearGradient>
    <linearGradient
       inkscape:collect="always"
       id="linearGradient3091">
      <stop
         style="stop-color:#d31457;stop-opacity:1"
         offset="0"
         id="stop3093" />
      <stop
         style="stop-color:#de306d;stop-opacity:1"
         offset="1"
         id="stop3095" />
    </linearGradient>
    <linearGradient
       inkscape:collect="always"
       id="linearGradient3097-3">
      <stop
         style="stop-color:#b5184f;stop-opacity:1"
         offset="0"
         id="stop3099" />
      <stop
         style="stop-color:#c81f5a;stop-opacity:1"
         offset="1"
         id="stop3101" />
    </linearGradient>
    <linearGradient
       inkscape:collect="always"
       xlink:href="#linearGradient4431"
       id="linearGradient4169"
       gradientUnits="userSpaceOnUse"
       x1="368.49213"
       y1="542.15314"
       x2="368.49213"
       y2="523.7475" />
    <radialGradient
       inkscape:collect="always"
       xlink:href="#linearGradient4124"
       id="radialGradient4171"
       gradientUnits="userSpaceOnUse"
       cx="67.5"
       cy="-21.5"
       fx="67.5"
       fy="-21.5"
       r="7.5" />
    <linearGradient
       inkscape:collect="always"
       xlink:href="#linearGradient4271"
       id="linearGradient4227"
       gradientUnits="userSpaceOnUse"
       x1="368.49213"
       y1="542.15314"
       x2="368.49213"
       y2="522.8653" />
    <radialGradient
       inkscape:collect="always"
       xlink:href="#linearGradient4124"
       id="radialGradient4229"
       gradientUnits="userSpaceOnUse"
       cx="67.5"
       cy="-21.5"
       fx="67.5"
       fy="-21.5"
       r="7.5" />
    <linearGradient
       inkscape:collect="always"
       xlink:href="#linearGradient4132"
       id="linearGradient4263"
       gradientUnits="userSpaceOnUse"
       x1="368.49213"
       y1="542.15314"
       x2="368.49213"
       y2="523.74957" />
    <radialGradient
       inkscape:collect="always"
       xlink:href="#linearGradient4124"
       id="radialGradient4265"
       gradientUnits="userSpaceOnUse"
       cx="67.5"
       cy="-21.5"
       fx="67.5"
       fy="-21.5"
       r="7.5" />
    <linearGradient
       gradientUnits="userSpaceOnUse"
       y2="7.1687565"
       x2="10.455189"
       y1="16.513626"
       x1="10.455189"
       id="linearGradient3799"
       xlink:href="#linearGradient3793"
       inkscape:collect="always" />
    <linearGradient
       y2="8.1467962"
       x2="12.916666"
       y1="15.670819"
       x1="12.916666"
       gradientUnits="userSpaceOnUse"
       id="linearGradient3942-9"
       xlink:href="#linearGradient3802"
       inkscape:collect="always" />
    <linearGradient
       y2="7.8110538"
       x2="12.916666"
       y1="15.670819"
       x1="12.916666"
       gradientUnits="userSpaceOnUse"
       id="linearGradient3902-0"
       xlink:href="#linearGradient3856-3"
       inkscape:collect="always" />
    <linearGradient
       gradientUnits="userSpaceOnUse"
       y2="7.8110538"
       x2="12.916666"
       y1="15.670819"
       x1="12.916666"
       id="linearGradient3862-9"
       xlink:href="#linearGradient3856-3"
       inkscape:collect="always" />
    <linearGradient
       id="linearGradient3777-9-9">
      <stop
         id="stop3779-0-4"
         offset="0"
         style="stop-color:#000000;stop-opacity:0.22745098;" />
      <stop
         id="stop3781-3-3"
         offset="1"
         style="stop-color:#000000;stop-opacity:0;" />
    </linearGradient>
    <linearGradient
       id="linearGradient3767-7-2">
      <stop
         style="stop-color:#fafafa;stop-opacity:1;"
         offset="0"
         id="stop3769-8-6" />
      <stop
         style="stop-color:#d4d4d4;stop-opacity:1;"
         offset="1"
         id="stop3771-1-3" />
    </linearGradient>
    <linearGradient
       id="linearGradient3757-5-7">
      <stop
         style="stop-color:#bebebe;stop-opacity:1;"
         offset="0"
         id="stop3759-4-2" />
      <stop
         style="stop-color:#e6e6e6;stop-opacity:1;"
         offset="1"
         id="stop3761-5-0" />
    </linearGradient>
    <linearGradient
       inkscape:collect="always"
       xlink:href="#linearGradient3757-5-7"
       id="linearGradient3763-4-9"
       x1="13"
       y1="4"
       x2="13"
       y2="19"
       gradientUnits="userSpaceOnUse" />
    <linearGradient
       inkscape:collect="always"
       xlink:href="#linearGradient3767-7-2"
       id="linearGradient3797-0"
       gradientUnits="userSpaceOnUse"
       x1="13.333333"
       y1="5.9999866"
       x2="13.333333"
       y2="16.999987" />
    <linearGradient
       inkscape:collect="always"
       xlink:href="#linearGradient3777-9-9"
       id="linearGradient3801-9-4"
       gradientUnits="userSpaceOnUse"
       x1="14.470589"
       y1="16.999983"
       x2="14.470589"
       y2="5.9999824" />
    <linearGradient
       y2="5.9999824"
       x2="14.470589"
       y1="16.999983"
       x1="14.470589"
       gradientUnits="userSpaceOnUse"
       id="linearGradient3801-3"
       xlink:href="#linearGradient3777-0"
       inkscape:collect="always" />
    <linearGradient
       gradientUnits="userSpaceOnUse"
       y2="19"
       x2="13"
       y1="4"
       x1="13"
       id="linearGradient3763-40"
       xlink:href="#linearGradient3757-2"
       inkscape:collect="always" />
    <linearGradient
       id="linearGradient3757-2">
      <stop
         id="stop3759-42"
         offset="0"
         style="stop-color:#bebebe;stop-opacity:1;" />
      <stop
         id="stop3761-9"
         offset="1"
         style="stop-color:#e6e6e6;stop-opacity:1;" />
    </linearGradient>
    <linearGradient
       id="linearGradient3767-4">
      <stop
         id="stop3769-7"
         offset="0"
         style="stop-color:#fafafa;stop-opacity:1;" />
      <stop
         id="stop3771-4"
         offset="1"
         style="stop-color:#d4d4d4;stop-opacity:1;" />
    </linearGradient>
    <linearGradient
       id="linearGradient3777-0">
      <stop
         style="stop-color:#000000;stop-opacity:0.22745098;"
         offset="0"
         id="stop3779-02" />
      <stop
         style="stop-color:#000000;stop-opacity:0;"
         offset="1"
         id="stop3781-30" />
    </linearGradient>
    <linearGradient
       id="linearGradient3856-3"
       inkscape:collect="always">
      <stop
         id="stop3858-6"
         offset="0"
         style="stop-color:#84c312;stop-opacity:1" />
      <stop
         id="stop3860-6"
         offset="1"
         style="stop-color:#93d814;stop-opacity:1" />
    </linearGradient>
    <linearGradient
       id="linearGradient3904-8">
      <stop
         id="stop3906-8"
         offset="0"
         style="stop-color:#000000;stop-opacity:0.28921569" />
      <stop
         id="stop3908-0"
         offset="1"
         style="stop-color:#000000;stop-opacity:0.07954545" />
    </linearGradient>
    <linearGradient
       id="linearGradient3793"
       inkscape:collect="always">
      <stop
         id="stop3795"
         offset="0"
         style="stop-color:#62910d;stop-opacity:1" />
      <stop
         id="stop3797"
         offset="1"
         style="stop-color:#7cb711;stop-opacity:1" />
    </linearGradient>
    <linearGradient
       inkscape:collect="always"
       id="linearGradient3802">
      <stop
         style="stop-color:#81c40b;stop-opacity:1"
         offset="0"
         id="stop3804" />
      <stop
         style="stop-color:#95dc11;stop-opacity:1"
         offset="1"
         id="stop3806" />
    </linearGradient>
    <linearGradient
       inkscape:collect="always"
       xlink:href="#linearGradient4405"
       id="linearGradient4411"
       x1="358.20544"
       y1="541.12866"
       x2="358.20544"
       y2="524.27185"
       gradientUnits="userSpaceOnUse" />
    <linearGradient
       inkscape:collect="always"
       xlink:href="#linearGradient4415"
       id="linearGradient4421"
       x1="382.44913"
       y1="543.52777"
       x2="382.57541"
       y2="522.40875"
       gradientUnits="userSpaceOnUse" />
    <linearGradient
       inkscape:collect="always"
       xlink:href="#linearGradient4423"
       id="linearGradient4429"
       x1="375.10541"
       y1="543.39178"
       x2="375.10541"
       y2="522.06403"
       gradientUnits="userSpaceOnUse" />
  </defs>
  <sodipodi:namedview
     id="base"
     pagecolor="#ffffff"
     bordercolor="#666666"
     borderopacity="1.0"
     inkscape:pageopacity="0.0"
     inkscape:pageshadow="2"
     inkscape:zoom="6.5652344"
     inkscape:cx="22.625215"
     inkscape:cy="12.820499"
     inkscape:document-units="px"
     inkscape:current-layer="layer1"
     showgrid="false"
     fit-margin-top="0"
     fit-margin-left="0"
     fit-margin-right="0"
     fit-margin-bottom="0"
     inkscape:window-width="1280"
     inkscape:window-height="967"
     inkscape:window-x="0"
     inkscape:window-y="30"
     inkscape:window-maximized="1"
     inkscape:snap-grids="false"
     inkscape:snap-to-guides="false"
     inkscape:showpageshadow="false"
     inkscape:snap-global="false" />
  <metadata
     id="metadata3487">
    <rdf:RDF>
      <cc:Work
         rdf:about="">
        <dc:format>image/svg+xml</dc:format>
        <dc:type
           rdf:resource="http://purl.org/dc/dcmitype/StillImage" />
        <dc:title />
      </cc:Work>
    </rdf:RDF>
  </metadata>
  <g
     inkscape:label="Layer 1"
     inkscape:groupmode="layer"
     id="layer1"
     transform="translate(-350.99212,-519.36632)">
    <ellipse
       transform="scale(1,-1)"
       ry="12.414099"
       rx="12.253572"
       cy="-532.37946"
       cx="386.16046"
       id="ellipse4720"
       style="opacity:1;fill:#cccccc;fill-opacity:1;stroke:none;stroke-width:2.59559131;stroke-linecap:round;stroke-linejoin:round;stroke-miterlimit:4;stroke-dasharray:none;stroke-dashoffset:0;stroke-opacity:1" />
    <rect
       ry="9.6511297"
       rx="9.2725325"
       style="fill:#cccccc;fill-opacity:1;stroke:none;stroke-width:0.88737261;stroke-miterlimit:4;stroke-dasharray:none;stroke-opacity:1"
       id="rect4718"
       width="37.19875"
       height="19.302265"
       x="351.54578"
       y="523.12976" />
    <rect
       y="524.07837"
       x="352.58945"
       height="17.368872"
       width="34.839489"
       id="rect4253-3"
       style="fill:#ffffff;fill-opacity:1;stroke:none;stroke-width:0.81462806;stroke-miterlimit:4;stroke-dasharray:none;stroke-opacity:1"
       rx="8.6844397"
       ry="8.6844339" />
    <ellipse
       style="opacity:1;fill:#bbb845;fill-opacity:1;stroke:none;stroke-width:2.38816071;stroke-linecap:round;stroke-linejoin:round;stroke-miterlimit:4;stroke-dasharray:none;stroke-dashoffset:0;stroke-opacity:1"
       id="path1183"
       cx="386.20306"
       cy="-532.3363"
       rx="11.274311"
       ry="11.422009"
       transform="scale(1,-1)" />
  </g>
</svg>
