<?xml version="1.0" encoding="UTF-8" standalone="no"?>
<!-- Created with Inkscape (http://www.inkscape.org/) -->

<svg
   xmlns:dc="http://purl.org/dc/elements/1.1/"
   xmlns:cc="http://creativecommons.org/ns#"
   xmlns:rdf="http://www.w3.org/1999/02/22-rdf-syntax-ns#"
   xmlns:svg="http://www.w3.org/2000/svg"
   xmlns="http://www.w3.org/2000/svg"
   xmlns:xlink="http://www.w3.org/1999/xlink"
   xmlns:sodipodi="http://sodipodi.sourceforge.net/DTD/sodipodi-0.dtd"
   xmlns:inkscape="http://www.inkscape.org/namespaces/inkscape"
   sodipodi:docname="check-active.svg"
   inkscape:version="0.92.1 r15371"
   version="1.1"
   id="svg5038"
   height="40"
   width="40">
  <defs
     id="defs5040">
    <linearGradient
       inkscape:collect="always"
       id="linearGradient4925">
      <stop
         style="stop-color:#666666;stop-opacity:1"
         offset="0"
         id="stop4921" />
      <stop
         style="stop-color:#b3b3b3;stop-opacity:0;"
         offset="1"
         id="stop4923" />
    </linearGradient>
    <inkscape:path-effect
       effect="spiro"
       id="path-effect5837"
       is_visible="true" />
    <inkscape:path-effect
       effect="spiro"
       id="path-effect5012"
       is_visible="true" />
    <inkscape:path-effect
       effect="spiro"
       id="path-effect5884"
       is_visible="true" />
    <linearGradient
       y2="1106.5294"
       x2="808"
       y1="1040.7369"
       x1="806.39526"
       gradientTransform="matrix(0.04728153,0,0,0.52063887,144.29163,-314.78125)"
       gradientUnits="userSpaceOnUse"
       id="linearGradient5726"
       xlink:href="#linearGradient85841-7-0"
       inkscape:collect="always" />
    <linearGradient
       inkscape:collect="always"
       id="linearGradient85841-7-0">
      <stop
         style="stop-color:#242424;stop-opacity:1"
         offset="0"
         id="stop85843-4-8" />
      <stop
         id="stop85845-0-5"
         offset="0.63381755"
         style="stop-color:#101010;stop-opacity:1;" />
      <stop
         style="stop-color:#262626;stop-opacity:1"
         offset="1"
         id="stop85847-7-3" />
    </linearGradient>
    <filter
       inkscape:collect="always"
       style="color-interpolation-filters:sRGB"
       id="filter4915"
       x="-0.036135336"
       width="1.0722707"
       y="-0.035865674"
       height="1.0717313">
      <feGaussianBlur
         inkscape:collect="always"
         stdDeviation="0.25299863"
         id="feGaussianBlur4917" />
    </filter>
    <linearGradient
       inkscape:collect="always"
       xlink:href="#linearGradient4925"
       id="linearGradient4927"
       x1="6.304359"
       y1="31.589745"
       x2="6.304359"
       y2="39.174339"
       gradientUnits="userSpaceOnUse"
       gradientTransform="matrix(0.95196827,0,0,0.95196827,0.34146658,1.7296485)" />
    <linearGradient
       inkscape:collect="always"
       xlink:href="#linearGradient4959"
       id="linearGradient4927-6"
       x1="6.304359"
       y1="30.047373"
       x2="6.304359"
       y2="39.174339"
       gradientUnits="userSpaceOnUse"
       gradientTransform="matrix(1.0192404,0,0,1.0192404,-205.42131,-89.167354)" />
    <linearGradient
       id="linearGradient4959"
       inkscape:collect="always">
      <stop
         id="stop4955"
         offset="0"
         style="stop-color:#666666;stop-opacity:1" />
      <stop
         id="stop4957"
         offset="1"
         style="stop-color:#ffffff;stop-opacity:1" />
    </linearGradient>
    <filter
       inkscape:collect="always"
       style="color-interpolation-filters:sRGB"
       id="filter4915-2"
       x="-0.036135335"
       width="1.0722708"
       y="-0.035865676"
       height="1.0717313">
      <feGaussianBlur
         inkscape:collect="always"
         stdDeviation="0.25299863"
         id="feGaussianBlur4917-9" />
    </filter>
    <linearGradient
       inkscape:collect="always"
       xlink:href="#linearGradient4925"
       id="linearGradient5044"
       gradientUnits="userSpaceOnUse"
       gradientTransform="matrix(1.0192404,0,0,1.0192404,-204.14784,-64.868414)"
       x1="6.304359"
       y1="31.589745"
       x2="6.304359"
       y2="39.174339" />
    <filter
       inkscape:collect="always"
       style="color-interpolation-filters:sRGB"
       id="filter4915-2-3"
       x="-0.036135335"
       width="1.0722708"
       y="-0.035865676"
       height="1.0717313">
      <feGaussianBlur
         inkscape:collect="always"
         stdDeviation="0.25299863"
         id="feGaussianBlur4917-9-6" />
    </filter>
    <filter
       inkscape:collect="always"
       style="color-interpolation-filters:sRGB"
       id="filter5315"
       x="-0.041937173"
       width="1.0838743"
       y="-0.031535433"
       height="1.0630709">
      <feGaussianBlur
         inkscape:collect="always"
         stdDeviation="2.283067"
         id="feGaussianBlur5317" />
    </filter>
  </defs>
  <sodipodi:namedview
     id="base"
     pagecolor="#ffffff"
     bordercolor="#666666"
     borderopacity="1.0"
     inkscape:pageopacity="0.0"
     inkscape:pageshadow="2"
     inkscape:zoom="2.9236985"
     inkscape:cx="-90.208239"
     inkscape:cy="-51.612865"
     inkscape:current-layer="layer1"
     showgrid="true"
     inkscape:grid-bbox="true"
     inkscape:document-units="px"
     inkscape:window-width="1278"
     inkscape:window-height="970"
     inkscape:window-x="0"
     inkscape:window-y="30"
     inkscape:window-maximized="0"
     inkscape:snap-global="false"
     showguides="false"
     inkscape:guide-bbox="true"
     showborder="false">
    <sodipodi:guide
       position="19.4531,16.845102"
       orientation="1,0"
       id="guide4881"
       inkscape:locked="false" />
    <sodipodi:guide
       position="25.951718,19.752378"
       orientation="0,1"
       id="guide4883"
       inkscape:locked="false" />
  </sodipodi:namedview>
  <metadata
     id="metadata5043">
    <rdf:RDF>
      <cc:Work
         rdf:about="">
        <dc:format>image/svg+xml</dc:format>
        <dc:type
           rdf:resource="http://purl.org/dc/dcmitype/StillImage" />
        <dc:title></dc:title>
      </cc:Work>
    </rdf:RDF>
  </metadata>
  <g
     id="layer1"
     inkscape:label="Layer 1"
     inkscape:groupmode="layer"
     transform="translate(0,-8)">
    <rect
       y="149.88269"
       x="-263.36087"
       height="173.75252"
       width="130.65642"
       id="rect5305"
       style="opacity:1;fill:#e6e6e6;fill-opacity:1;stroke:#3194b5;stroke-width:0.145;stroke-linecap:round;stroke-linejoin:round;stroke-miterlimit:4;stroke-dasharray:none;stroke-dashoffset:0;stroke-opacity:1;filter:url(#filter5315)"
       inkscape:export-xdpi="90"
       inkscape:export-ydpi="90" />
    <g
       style="display:inline;fill:#ffffff;fill-opacity:0.07772019;stroke:#777777;stroke-opacity:0.45490196;enable-background:new"
       id="g15291-9"
       transform="matrix(1.432686,0,0,1.432686,-861.53658,-220.44081)"
       inkscape:export-filename="/home/jimmac/SparkleShare/gnome-mockups/boxes/interactive/img/checkbox-on.png"
       inkscape:export-xdpi="90"
       inkscape:export-ydpi="90">
      <g
         style="fill:#ffffff;fill-opacity:0.07772019;stroke:#777777;stroke-opacity:0.45490196;enable-background:new"
         id="g16853-4"
         transform="translate(877.50354,-102.83507)">
        <rect
           ry="0.80653393"
           rx="0.80653393"
           y="-284.86218"
           x="-409.50739"
           height="11.023263"
           width="11.042357"
           id="rect6506-6"
           style="color:#000000;display:inline;overflow:visible;visibility:visible;fill:#ffffff;fill-opacity:0.07772019;fill-rule:nonzero;stroke:#777777;stroke-width:0.48824981;stroke-opacity:0.45490196;marker:none;enable-background:accumulate"
           transform="scale(1,-1)" />
      </g>
    </g>
    <g
       style="display:inline;fill:none;fill-opacity:0.45490196;stroke:#777777;stroke-opacity:0.45490196;enable-background:new"
       id="g5886"
       transform="matrix(0.55542159,0,0,0.55542159,-298.20445,-101.83975)"
       inkscape:export-filename="/home/jimmac/SparkleShare/gnome-mockups/boxes/interactive/img/checkbox-on.png"
       inkscape:export-xdpi="90"
       inkscape:export-ydpi="90">
      <path
         inkscape:connector-curvature="0"
         inkscape:original-d="m 198.5,240 5.25,5.25 13.875,-13.875"
         inkscape:path-effect="#path-effect5837"
         id="path5835"
         d="m 198.5,240 5.25,5.25 13.875,-13.875"
         style="fill:none;fill-opacity:0.45490196;stroke:#777777;stroke-width:5.8499999;stroke-linecap:round;stroke-linejoin:round;stroke-miterlimit:4;stroke-dasharray:none;stroke-opacity:0.45490196" />
    </g>
    <g
       inkscape:export-ydpi="90"
       inkscape:export-xdpi="90"
       inkscape:export-filename="/home/jimmac/SparkleShare/gnome-mockups/boxes/interactive/img/checkbox-on.png"
       transform="matrix(1.432686,0,0,1.432686,-857.51769,-185.21146)"
       id="g4621"
       style="display:inline;fill:#d7bad9;fill-opacity:0.07772019;stroke:#3194b5;stroke-opacity:1;enable-background:new">
      <g
         transform="translate(877.50354,-102.83507)"
         id="g4619"
         style="fill:#d7bad9;fill-opacity:0.07772019;stroke:#3194b5;stroke-opacity:1;enable-background:new">
        <rect
           transform="scale(1,-1)"
           style="color:#000000;display:inline;overflow:visible;visibility:visible;fill:#d7bad9;fill-opacity:0.07772019;fill-rule:nonzero;stroke:#3194b5;stroke-width:0.48824981;stroke-opacity:1;marker:none;enable-background:accumulate"
           id="rect4617"
           width="11.042357"
           height="11.023263"
           x="-409.50739"
           y="-284.86218"
           rx="0.80653393"
           ry="0.80653393" />
      </g>
    </g>
    <g
       inkscape:export-ydpi="90"
       inkscape:export-xdpi="90"
       inkscape:export-filename="/home/jimmac/SparkleShare/gnome-mockups/boxes/interactive/img/checkbox-on.png"
       transform="matrix(0.55542159,0,0,0.55542159,-294.18557,-66.610404)"
       id="g4625"
       style="display:inline;fill:none;fill-opacity:0.07772019;enable-background:new">
      <path
         style="fill:none;fill-opacity:0.07772019;stroke:#3194b5;stroke-width:5.8499999;stroke-linecap:round;stroke-linejoin:round;stroke-miterlimit:4;stroke-dasharray:none;stroke-opacity:1"
         d="m 198.5,240 5.25,5.25 13.875,-13.875"
         id="path4623"
         inkscape:path-effect="#path-effect5837"
         inkscape:original-d="m 198.5,240 5.25,5.25 13.875,-13.875"
         inkscape:connector-curvature="0" />
    </g>
    <g
       inkscape:export-ydpi="90"
       inkscape:export-xdpi="90"
       inkscape:export-filename="/home/jimmac/SparkleShare/gnome-mockups/boxes/interactive/img/checkbox-on.png"
       transform="matrix(1.432686,0,0,1.432686,-864.92436,-155.60515)"
       id="g4755"
       style="display:inline;fill:#ffffff;fill-opacity:0.0745098;stroke:#777777;stroke-opacity:0.45490196;enable-background:new">
      <g
         transform="translate(877.50354,-102.83507)"
         id="g4753"
         style="fill:#ffffff;fill-opacity:0.0745098;stroke:#777777;stroke-opacity:0.45490196;enable-background:new">
        <rect
           transform="scale(1,-1)"
           style="color:#000000;display:inline;overflow:visible;visibility:visible;fill:#ffffff;fill-opacity:0.0745098;fill-rule:nonzero;stroke:#777777;stroke-width:0.48824981;stroke-opacity:0.45490196;marker:none;enable-background:accumulate"
           id="rect4751"
           width="11.042357"
           height="11.023263"
           x="-409.50739"
           y="-284.86218"
           rx="0.80653393"
           ry="0.80653393" />
      </g>
    </g>
    <rect
       style="opacity:1;fill:#828282;fill-opacity:0.49411765;stroke:none;stroke-width:2.14285707;stroke-linecap:round;stroke-linejoin:round;stroke-miterlimit:4;stroke-dasharray:none;stroke-dashoffset:0;stroke-opacity:0.45490196"
       id="rect4757"
       width="10.883408"
       height="4.2756248"
       x="-192.05997"
       y="95.019051"
       rx="0"
       ry="0"
       inkscape:export-xdpi="90"
       inkscape:export-ydpi="90" />
    <g
       style="display:inline;fill:#d7bcd7;fill-opacity:0.0745098;stroke:#3194b5;stroke-opacity:1;enable-background:new"
       id="g4763"
       transform="matrix(1.432686,0,0,1.432686,-825.74409,-148.34955)"
       inkscape:export-filename="/home/jimmac/SparkleShare/gnome-mockups/boxes/interactive/img/checkbox-on.png"
       inkscape:export-xdpi="90"
       inkscape:export-ydpi="90">
      <g
         style="fill:#d7bcd7;fill-opacity:0.0745098;stroke:#3194b5;stroke-opacity:1;enable-background:new"
         id="g4761"
         transform="translate(877.50354,-102.83507)">
        <rect
           ry="0.80653393"
           rx="0.80653393"
           y="-284.86218"
           x="-409.50739"
           height="11.023263"
           width="11.042357"
           id="rect4759"
           style="color:#000000;display:inline;overflow:visible;visibility:visible;fill:#d7bcd7;fill-opacity:0.0745098;fill-rule:nonzero;stroke:#3194b5;stroke-width:0.48824981;stroke-opacity:1;marker:none;enable-background:accumulate"
           transform="scale(1,-1)" />
      </g>
    </g>
    <rect
       inkscape:export-ydpi="90"
       inkscape:export-xdpi="90"
       ry="0"
       rx="0"
       y="102.27465"
       x="-152.87968"
       height="4.2756248"
       width="10.883408"
       id="rect4765"
       style="opacity:1;fill:#3194b5;fill-opacity:1;stroke:none;stroke-width:2.14285707;stroke-linecap:round;stroke-linejoin:round;stroke-miterlimit:4;stroke-dasharray:none;stroke-dashoffset:0;stroke-opacity:0.45490196" />
    <g
       inkscape:export-ydpi="90"
       inkscape:export-xdpi="90"
       inkscape:export-filename="/home/jimmac/SparkleShare/gnome-mockups/boxes/interactive/img/checkbox-on.png"
       transform="matrix(1.432686,0,0,1.432686,-877.5963,-184.11332)"
       id="g4755-3"
       style="display:inline;fill:#ffffff;fill-opacity:0.0745098;stroke:#777777;stroke-opacity:0.45490196;enable-background:new">
      <g
         transform="translate(877.50354,-102.83507)"
         id="g4753-6"
         style="fill:#ffffff;fill-opacity:0.0745098;stroke:#777777;stroke-opacity:0.45490196;enable-background:new">
        <rect
           transform="scale(1,-1)"
           style="color:#000000;display:inline;overflow:visible;visibility:visible;fill:#ffffff;fill-opacity:0.0745098;fill-rule:nonzero;stroke:#777777;stroke-width:0.48824981;stroke-opacity:0.45490196;marker:none;enable-background:accumulate"
           id="rect4751-7"
           width="11.042357"
           height="11.023263"
           x="-409.50739"
           y="-284.86218"
           rx="0.80653393"
           ry="0.80653393" />
      </g>
    </g>
    <g
       inkscape:export-ydpi="90"
       inkscape:export-xdpi="90"
       inkscape:export-filename="/home/jimmac/SparkleShare/gnome-mockups/boxes/interactive/img/checkbox-on.png"
       transform="matrix(1.432686,0,0,1.432686,-878.68464,-205.2755)"
       id="g4755-3-5"
       style="display:inline;fill:#808080;fill-opacity:0.0745098;stroke:#777777;stroke-opacity:0.45490196;enable-background:new">
      <g
         transform="translate(877.50354,-102.83507)"
         id="g4753-6-3"
         style="fill:#808080;fill-opacity:0.0745098;stroke:#777777;stroke-opacity:0.45490196;enable-background:new">
        <rect
           transform="scale(1,-1)"
           style="color:#000000;display:inline;overflow:visible;visibility:visible;fill:#808080;fill-opacity:0.0745098;fill-rule:nonzero;stroke:#777777;stroke-width:0.48824981;stroke-opacity:0.45490196;marker:none;enable-background:accumulate"
           id="rect4751-7-5"
           width="11.042357"
           height="11.023263"
           x="-409.50739"
           y="-284.86218"
           rx="0.80653393"
           ry="0.80653393" />
      </g>
    </g>
    <ellipse
       inkscape:export-ydpi="90"
       inkscape:export-xdpi="90"
       transform="matrix(1.0141381,0,0,1.0141381,-218.58266,-81.051956)"
       style="opacity:1;fill:#999999;fill-opacity:1;stroke:none;stroke-width:2.0895524;stroke-linecap:round;stroke-linejoin:round;stroke-miterlimit:4;stroke-dasharray:none;stroke-dashoffset:0;stroke-opacity:0.45490196;filter:url(#filter4915-2)"
       id="ellipse4885-1"
       cx="19.28511"
       cy="28.53079"
       rx="8.4017029"
       ry="8.4648724" />
    <ellipse
       inkscape:export-ydpi="90"
       inkscape:export-xdpi="90"
       ry="8.2834826"
       rx="8.2216663"
       cy="-52.291847"
       cx="-198.96951"
       id="path4871-2"
       style="opacity:1;fill:#e6e6e6;fill-opacity:1;stroke:none;stroke-width:2.0447762;stroke-linecap:round;stroke-linejoin:round;stroke-miterlimit:4;stroke-dasharray:none;stroke-dashoffset:0;stroke-opacity:0.45490196" />
    <ellipse
       inkscape:export-ydpi="90"
       inkscape:export-xdpi="90"
       style="opacity:1;fill:#ffffff;fill-opacity:1;stroke:none;stroke-width:0.9594065;stroke-linecap:round;stroke-linejoin:round;stroke-miterlimit:4;stroke-dasharray:none;stroke-dashoffset:0;stroke-opacity:0.45490196"
       id="ellipse4875-7"
       cx="-199.07306"
       cy="-52.447426"
       rx="3.8575954"
       ry="3.8865995" />
    <ellipse
       inkscape:export-ydpi="90"
       inkscape:export-xdpi="90"
       ry="3.5604854"
       rx="3.5339148"
       cy="-52.463955"
       cx="-199.09203"
       id="ellipse4873-0"
       style="opacity:1;fill:#ffffff;fill-opacity:1;stroke:none;stroke-width:0.87890524;stroke-linecap:round;stroke-linejoin:round;stroke-miterlimit:4;stroke-dasharray:none;stroke-dashoffset:0;stroke-opacity:0.45490196" />
    <ellipse
       inkscape:export-ydpi="90"
       inkscape:export-xdpi="90"
       style="opacity:1;fill:url(#linearGradient4927-6);fill-opacity:1;stroke:none;stroke-width:0.83668989;stroke-linecap:round;stroke-linejoin:round;stroke-miterlimit:4;stroke-dasharray:none;stroke-dashoffset:0;stroke-opacity:0.45490196"
       id="ellipse4919-9"
       cx="-199.04799"
       cy="-52.463955"
       rx="3.3641746"
       ry="3.3894691" />
    <ellipse
       inkscape:export-ydpi="90"
       inkscape:export-xdpi="90"
       transform="matrix(1.0141381,0,0,1.0141381,-217.30919,-56.753015)"
       style="opacity:1;fill:#999999;fill-opacity:1;stroke:none;stroke-width:2.0895524;stroke-linecap:round;stroke-linejoin:round;stroke-miterlimit:4;stroke-dasharray:none;stroke-dashoffset:0;stroke-opacity:0.45490196;filter:url(#filter4915)"
       id="ellipse5034"
       cx="19.28511"
       cy="28.53079"
       rx="8.4017029"
       ry="8.4648724" />
    <ellipse
       inkscape:export-ydpi="90"
       inkscape:export-xdpi="90"
       ry="8.2834826"
       rx="8.2216663"
       cy="-27.992907"
       cx="-197.69604"
       id="ellipse5036"
       style="opacity:1;fill:#3194b5;fill-opacity:1;stroke:none;stroke-width:2.0447762;stroke-linecap:round;stroke-linejoin:round;stroke-miterlimit:4;stroke-dasharray:none;stroke-dashoffset:0;stroke-opacity:0.45490196" />
    <ellipse
       ry="3.8865995"
       rx="3.8575954"
       cy="-28.148485"
       cx="-197.79959"
       id="ellipse5038"
       style="opacity:1;fill:#ffffff;fill-opacity:1;stroke:none;stroke-width:0.9594065;stroke-linecap:round;stroke-linejoin:round;stroke-miterlimit:4;stroke-dasharray:none;stroke-dashoffset:0;stroke-opacity:0.45490196"
       inkscape:export-xdpi="90"
       inkscape:export-ydpi="90" />
    <ellipse
       style="opacity:1;fill:#ffffff;fill-opacity:1;stroke:none;stroke-width:0.87890524;stroke-linecap:round;stroke-linejoin:round;stroke-miterlimit:4;stroke-dasharray:none;stroke-dashoffset:0;stroke-opacity:0.45490196"
       id="ellipse5040"
       cx="-197.81856"
       cy="-28.165014"
       rx="3.5339148"
       ry="3.5604854"
       inkscape:export-xdpi="90"
       inkscape:export-ydpi="90" />
    <ellipse
       ry="3.3894691"
       rx="3.3641746"
       cy="-28.165014"
       cx="-197.77454"
       id="ellipse5042"
       style="opacity:1;fill:url(#linearGradient5044);fill-opacity:1;stroke:none;stroke-width:0.83668989;stroke-linecap:round;stroke-linejoin:round;stroke-miterlimit:4;stroke-dasharray:none;stroke-dashoffset:0;stroke-opacity:0.45490196"
       inkscape:export-xdpi="90"
       inkscape:export-ydpi="90" />
    <ellipse
       inkscape:export-ydpi="90"
       inkscape:export-xdpi="90"
       transform="matrix(1.0141381,0,0,1.0141381,-204.2491,-33.172297)"
       style="opacity:1;fill:#999999;fill-opacity:1;stroke:none;stroke-width:2.0895524;stroke-linecap:round;stroke-linejoin:round;stroke-miterlimit:4;stroke-dasharray:none;stroke-dashoffset:0;stroke-opacity:0.45490196;filter:url(#filter4915)"
       id="ellipse5048"
       cx="19.28511"
       cy="28.53079"
       rx="8.4017029"
       ry="8.4648724" />
    <ellipse
       inkscape:export-ydpi="90"
       inkscape:export-xdpi="90"
       ry="8.2834826"
       rx="8.2216663"
       cy="-4.4121885"
       cx="-184.63596"
       id="ellipse5050"
       style="opacity:1;fill:#3194b5;fill-opacity:1;stroke:none;stroke-width:2.0447762;stroke-linecap:round;stroke-linejoin:round;stroke-miterlimit:4;stroke-dasharray:none;stroke-dashoffset:0;stroke-opacity:0.45490196" />
    <rect
       inkscape:export-ydpi="90"
       inkscape:export-xdpi="90"
       ry="0"
       rx="0"
       y="-6.5284071"
       x="-190.13676"
       height="4.2756248"
       width="10.883408"
       id="rect5052"
       style="opacity:1;fill:#ffffff;fill-opacity:1;stroke:none;stroke-width:2.14285707;stroke-linecap:round;stroke-linejoin:round;stroke-miterlimit:4;stroke-dasharray:none;stroke-dashoffset:0;stroke-opacity:0.45490196" />
    <ellipse
       ry="8.4648724"
       rx="8.4017029"
       cy="28.53079"
       cx="19.28511"
       id="ellipse5054"
       style="opacity:1;fill:#b3b3b3;fill-opacity:1;stroke:none;stroke-width:2.0895524;stroke-linecap:round;stroke-linejoin:round;stroke-miterlimit:4;stroke-dasharray:none;stroke-dashoffset:0;stroke-opacity:0.45490196;filter:url(#filter4915-2)"
       transform="matrix(1.0425465,0,0,1.0425465,-175.81264,-160.20578)"
       inkscape:export-xdpi="90"
       inkscape:export-ydpi="90" />
    <ellipse
       style="opacity:1;fill:#ffffff;fill-opacity:1;stroke:#3194b5;stroke-width:0.145;stroke-linecap:round;stroke-linejoin:round;stroke-miterlimit:4;stroke-dasharray:none;stroke-dashoffset:0;stroke-opacity:1"
       id="ellipse5056"
       cx="-155.73775"
       cy="-130.54843"
       rx="8.2216663"
       ry="8.2834826"
       inkscape:export-xdpi="90"
       inkscape:export-ydpi="90" />
    <ellipse
       inkscape:export-ydpi="90"
       inkscape:export-xdpi="90"
       transform="matrix(1.0425465,0,0,1.0425465,-167.10297,-75.523379)"
       style="opacity:1;fill:#999999;fill-opacity:1;stroke:none;stroke-width:2.0895524;stroke-linecap:round;stroke-linejoin:round;stroke-miterlimit:4;stroke-dasharray:none;stroke-dashoffset:0;stroke-opacity:0.45490196;filter:url(#filter4915-2)"
       id="ellipse5192"
       cx="19.28511"
       cy="28.53079"
       rx="8.4017029"
       ry="8.4648724" />
    <ellipse
       inkscape:export-ydpi="90"
       inkscape:export-xdpi="90"
       ry="8.2834826"
       rx="8.2216663"
       cy="-45.866047"
       cx="-147.02808"
       id="ellipse5194"
       style="opacity:1;fill:#ffffff;fill-opacity:1;stroke:#3194b5;stroke-width:0.245;stroke-linecap:round;stroke-linejoin:round;stroke-miterlimit:4;stroke-dasharray:none;stroke-dashoffset:0;stroke-opacity:1" />
    <ellipse
       ry="8.4648724"
       rx="8.4017029"
       cy="28.53079"
       cx="19.28511"
       id="ellipse5054-0"
       style="opacity:1;fill:#808080;fill-opacity:1;stroke:none;stroke-width:2.0895524;stroke-linecap:round;stroke-linejoin:round;stroke-miterlimit:4;stroke-dasharray:none;stroke-dashoffset:0;stroke-opacity:0.45490196;filter:url(#filter4915-2-3)"
       transform="matrix(1.0425465,0,0,1.0425465,-195.66849,-131.24086)"
       inkscape:export-xdpi="90"
       inkscape:export-ydpi="90" />
    <ellipse
       style="opacity:1;fill:#ffffff;fill-opacity:1;stroke:#686969;stroke-width:0.245;stroke-linecap:round;stroke-linejoin:round;stroke-miterlimit:4;stroke-dasharray:none;stroke-dashoffset:0;stroke-opacity:1"
       id="ellipse5056-6"
       cx="-175.5936"
       cy="-101.58353"
       rx="8.2216663"
       ry="8.2834826"
       inkscape:export-xdpi="90"
       inkscape:export-ydpi="90" />
    <ellipse
       inkscape:export-ydpi="90"
       inkscape:export-xdpi="90"
       style="opacity:1;fill:#e6e6e6;fill-opacity:1;stroke:none;stroke-width:0.9594065;stroke-linecap:round;stroke-linejoin:round;stroke-miterlimit:4;stroke-dasharray:none;stroke-dashoffset:0;stroke-opacity:0.45490196"
       id="ellipse5190-2"
       cx="-175.74849"
       cy="-101.60534"
       rx="3.8575954"
       ry="3.8865995" />
    <ellipse
       inkscape:export-ydpi="90"
       inkscape:export-xdpi="90"
       transform="matrix(1.0425465,0,0,1.0425465,-158.15734,-128.62385)"
       style="opacity:1;fill:#3194b5;fill-opacity:1;stroke:none;stroke-width:2.0895524;stroke-linecap:round;stroke-linejoin:round;stroke-miterlimit:4;stroke-dasharray:none;stroke-dashoffset:0;stroke-opacity:0.45490196;filter:url(#filter4915-2)"
       id="ellipse5237"
       cx="19.28511"
       cy="28.53079"
       rx="8.4017029"
       ry="8.4648724" />
    <ellipse
       inkscape:export-ydpi="90"
       inkscape:export-xdpi="90"
       ry="8.2834826"
       rx="8.2216663"
       cy="-98.966522"
       cx="-138.08244"
       id="ellipse5239"
       style="opacity:1;fill:#ffffff;fill-opacity:1;stroke:#3194b5;stroke-width:0.245;stroke-linecap:round;stroke-linejoin:round;stroke-miterlimit:4;stroke-dasharray:none;stroke-dashoffset:0;stroke-opacity:1" />
    <ellipse
       inkscape:export-ydpi="90"
       inkscape:export-xdpi="90"
       transform="matrix(1.0141381,0,0,1.0141381,-194.21276,-72.301038)"
       style="opacity:1;fill:#999999;fill-opacity:1;stroke:none;stroke-width:2.0895524;stroke-linecap:round;stroke-linejoin:round;stroke-miterlimit:4;stroke-dasharray:none;stroke-dashoffset:0;stroke-opacity:0.45490196;filter:url(#filter4915-2)"
       id="ellipse5068"
       cx="19.28511"
       cy="28.53079"
       rx="8.4017029"
       ry="8.4648724" />
    <ellipse
       inkscape:export-ydpi="90"
       inkscape:export-xdpi="90"
       ry="8.2834826"
       rx="8.2216663"
       cy="-43.540928"
       cx="-174.59962"
       id="ellipse5070"
       style="opacity:1;fill:#e6e6e6;fill-opacity:1;stroke:none;stroke-width:2.0447762;stroke-linecap:round;stroke-linejoin:round;stroke-miterlimit:4;stroke-dasharray:none;stroke-dashoffset:0;stroke-opacity:0.45490196" />
    <rect
       inkscape:export-ydpi="90"
       inkscape:export-xdpi="90"
       ry="0"
       rx="0"
       y="-45.664482"
       x="-180.13213"
       height="4.2756248"
       width="10.883408"
       id="rect5072"
       style="opacity:1;fill:#999999;fill-opacity:1;stroke:none;stroke-width:2.14285707;stroke-linecap:round;stroke-linejoin:round;stroke-miterlimit:4;stroke-dasharray:none;stroke-dashoffset:0;stroke-opacity:0.45490196" />
    <ellipse
       inkscape:export-ydpi="90"
       inkscape:export-xdpi="90"
       transform="matrix(1.0141381,0,0,1.0141381,-176.94012,-98.466526)"
       style="opacity:1;fill:#999999;fill-opacity:1;stroke:none;stroke-width:2.0895524;stroke-linecap:round;stroke-linejoin:round;stroke-miterlimit:4;stroke-dasharray:none;stroke-dashoffset:0;stroke-opacity:0.45490196;filter:url(#filter4915-2)"
       id="ellipse5074"
       cx="19.28511"
       cy="28.53079"
       rx="8.4017029"
       ry="8.4648724" />
    <ellipse
       inkscape:export-ydpi="90"
       inkscape:export-xdpi="90"
       ry="8.2834826"
       rx="8.2216663"
       cy="-69.706421"
       cx="-157.32698"
       id="ellipse5076"
       style="opacity:1;fill:#ffffff;fill-opacity:1;stroke:#666666;stroke-width:0.045;stroke-linecap:round;stroke-linejoin:round;stroke-miterlimit:4;stroke-dasharray:none;stroke-dashoffset:0;stroke-opacity:1" />
    <ellipse
       ry="3.8865995"
       rx="3.8575954"
       cy="-130.57025"
       cx="-155.89264"
       id="ellipse5190"
       style="opacity:1;fill:#e6e6e6;fill-opacity:1;stroke:none;stroke-width:0.9594065;stroke-linecap:round;stroke-linejoin:round;stroke-miterlimit:4;stroke-dasharray:none;stroke-dashoffset:0;stroke-opacity:0.45490196"
       inkscape:export-xdpi="90"
       inkscape:export-ydpi="90" />
    <ellipse
       inkscape:export-ydpi="90"
       inkscape:export-xdpi="90"
       style="opacity:1;fill:#e6e6e6;fill-opacity:1;stroke:none;stroke-width:0.9594065;stroke-linecap:round;stroke-linejoin:round;stroke-miterlimit:4;stroke-dasharray:none;stroke-dashoffset:0;stroke-opacity:0.45490196"
       id="ellipse5196"
       cx="-147.18297"
       cy="-45.887859"
       rx="3.8575954"
       ry="3.8865995" />
    <ellipse
       inkscape:export-ydpi="90"
       inkscape:export-xdpi="90"
       style="opacity:1;fill:#e6e6e6;fill-opacity:1;stroke:none;stroke-width:0.9594065;stroke-linecap:round;stroke-linejoin:round;stroke-miterlimit:4;stroke-dasharray:none;stroke-dashoffset:0;stroke-opacity:0.45490196"
       id="ellipse5241"
       cx="-138.23734"
       cy="-98.988335"
       rx="3.8575954"
       ry="3.8865995" />
    <rect
       style="opacity:1;fill:none;fill-opacity:1;stroke:#bbb845;stroke-width:0.933;stroke-linecap:round;stroke-linejoin:round;stroke-miterlimit:4;stroke-dasharray:none;stroke-dashoffset:0;stroke-opacity:1"
       id="rect5445"
       width="24.486019"
       height="20.8759"
       x="-63.966042"
       y="29.695299"
       ry="2.3942277"
       inkscape:export-filename="/media/ftolosa/KINGSTON/CANAIMA 6/imagen CNTI-Canaima6/iconos/iconos/borders/button-active-ins.png"
       inkscape:export-xdpi="90"
       inkscape:export-ydpi="90" />
    <rect
       inkscape:export-ydpi="90"
       inkscape:export-xdpi="90"
       inkscape:export-filename="/media/ftolosa/KINGSTON/CANAIMA 6/imagen CNTI-Canaima6/iconos/iconos/borders/button-ins.png"
       ry="2.3942277"
       y="29.695299"
       x="-132.03052"
       height="20.8759"
       width="24.486019"
       id="rect5447"
       style="opacity:1;fill:none;fill-opacity:1;stroke:#333030;stroke-width:0.63300002;stroke-linecap:round;stroke-linejoin:round;stroke-miterlimit:4;stroke-dasharray:none;stroke-dashoffset:0;stroke-opacity:1" />
    <rect
       inkscape:export-ydpi="90"
       inkscape:export-xdpi="90"
       inkscape:export-filename="/media/ftolosa/KINGSTON/CANAIMA 6/imagen CNTI-Canaima6/iconos/iconos/borders/button-active.png"
       ry="2.3942277"
       y="-3.8238883"
       x="-127.92612"
       height="20.8759"
       width="24.486019"
       id="rect5449"
       style="opacity:1;fill:none;fill-opacity:1;stroke:#8c4196;stroke-width:0.63300002;stroke-linecap:round;stroke-linejoin:round;stroke-miterlimit:4;stroke-dasharray:none;stroke-dashoffset:0;stroke-opacity:1" />
    <image
       y="83.331375"
       x="-83.119469"
       id="image5622"
       xlink:href="data:image/png;base64,iVBORw0KGgoAAAANSUhEUgAAABkAAAAVCAYAAACzK0UYAAAABHNCSVQICAgIfAhkiAAAAAlwSFlz
AAAN1wAADdcBQiibeAAAABl0RVh0U29mdHdhcmUAd3d3Lmlua3NjYXBlLm9yZ5vuPBoAAACESURB
VEiJ7dWxDYNQDITh/xAIFqCgYrEU1DBPqCkQA9GxQaQsEAklTkEoUIo0fpGQ3g1wn93YMjNCJwVo
Jy28qEMA/cWKFAAjR+QhEPhsskcr1bWxm0dxO+qxD554FP5KRCISkYicETlc4SSj7Aa5Nx+QJ8xk
PsaXJ3HHKPzrt+gfP/4NOL8XMQr5GXoAAAAASUVORK5CYII=
"
       preserveAspectRatio="none"
       height="22.4"
       width="26.666668" />
    <rect
       inkscape:export-ydpi="90"
       inkscape:export-xdpi="90"
       inkscape:export-filename="/media/ftolosa/KINGSTON/CANAIMA 6/imagen CNTI-Canaima6/iconos/iconos/borders/button-active-ins.png"
       ry="0"
       y="85.501518"
       x="-45.745464"
       height="18.475574"
       width="22.857269"
       id="rect5625"
       style="opacity:1;fill:none;fill-opacity:1;stroke:#bbb845;stroke-width:1.89327967;stroke-linecap:round;stroke-linejoin:round;stroke-miterlimit:4;stroke-dasharray:none;stroke-dashoffset:0;stroke-opacity:1" />
  </g>
</svg>
